G04 #@! TF.FileFunction,Other,Fab,Top*
%FSLAX46Y46*%
G04 Gerber Fmt 4.6, Leading zero omitted, Abs format (unit mm)*
G04 Created by KiCad (PCBNEW 4.0.7) date 02/10/22 14:09:14*
%MOMM*%
%LPD*%
G01*
G04 APERTURE LIST*
%ADD10C,0.100000*%
%ADD11C,0.150000*%
%ADD12C,0.075000*%
G04 APERTURE END LIST*
D10*
X157480000Y-76200000D02*
X161290000Y-76200000D01*
X161290000Y-76200000D02*
X161290000Y-119380000D01*
X161290000Y-119380000D02*
X156210000Y-119380000D01*
X156210000Y-119380000D02*
X156210000Y-77470000D01*
X156210000Y-77470000D02*
X157480000Y-76200000D01*
X164785000Y-94045000D02*
X167235000Y-94045000D01*
X164215000Y-93495000D02*
X164215000Y-92645000D01*
X164785000Y-94045000D02*
X164215000Y-93495000D01*
X164215000Y-92645000D02*
X167255000Y-92645000D01*
X167255000Y-94045000D02*
X167255000Y-92645000D01*
X166685000Y-82485000D02*
X164235000Y-82485000D01*
X167255000Y-83035000D02*
X167255000Y-83885000D01*
X166685000Y-82485000D02*
X167255000Y-83035000D01*
X167255000Y-83885000D02*
X164215000Y-83885000D01*
X164215000Y-82485000D02*
X164215000Y-83885000D01*
X166535000Y-87230000D02*
X166535000Y-88030000D01*
X164935000Y-87230000D02*
X166535000Y-87230000D01*
X164935000Y-88030000D02*
X164935000Y-87230000D01*
X166535000Y-88030000D02*
X164935000Y-88030000D01*
X164700000Y-97625000D02*
X165500000Y-97625000D01*
X164700000Y-99225000D02*
X164700000Y-97625000D01*
X165500000Y-99225000D02*
X164700000Y-99225000D01*
X165500000Y-97625000D02*
X165500000Y-99225000D01*
D11*
X151107142Y-120797143D02*
X151059523Y-120844762D01*
X150916666Y-120892381D01*
X150821428Y-120892381D01*
X150678570Y-120844762D01*
X150583332Y-120749524D01*
X150535713Y-120654286D01*
X150488094Y-120463810D01*
X150488094Y-120320952D01*
X150535713Y-120130476D01*
X150583332Y-120035238D01*
X150678570Y-119940000D01*
X150821428Y-119892381D01*
X150916666Y-119892381D01*
X151059523Y-119940000D01*
X151107142Y-119987619D01*
X151678570Y-120892381D02*
X151583332Y-120844762D01*
X151535713Y-120797143D01*
X151488094Y-120701905D01*
X151488094Y-120416190D01*
X151535713Y-120320952D01*
X151583332Y-120273333D01*
X151678570Y-120225714D01*
X151821428Y-120225714D01*
X151916666Y-120273333D01*
X151964285Y-120320952D01*
X152011904Y-120416190D01*
X152011904Y-120701905D01*
X151964285Y-120797143D01*
X151916666Y-120844762D01*
X151821428Y-120892381D01*
X151678570Y-120892381D01*
X152440475Y-120225714D02*
X152440475Y-120892381D01*
X152440475Y-120320952D02*
X152488094Y-120273333D01*
X152583332Y-120225714D01*
X152726190Y-120225714D01*
X152821428Y-120273333D01*
X152869047Y-120368571D01*
X152869047Y-120892381D01*
X153345237Y-120225714D02*
X153345237Y-120892381D01*
X153345237Y-120320952D02*
X153392856Y-120273333D01*
X153488094Y-120225714D01*
X153630952Y-120225714D01*
X153726190Y-120273333D01*
X153773809Y-120368571D01*
X153773809Y-120892381D01*
X154011904Y-120987619D02*
X154773809Y-120987619D01*
X155202380Y-119892381D02*
X155297619Y-119892381D01*
X155392857Y-119940000D01*
X155440476Y-119987619D01*
X155488095Y-120082857D01*
X155535714Y-120273333D01*
X155535714Y-120511429D01*
X155488095Y-120701905D01*
X155440476Y-120797143D01*
X155392857Y-120844762D01*
X155297619Y-120892381D01*
X155202380Y-120892381D01*
X155107142Y-120844762D01*
X155059523Y-120797143D01*
X155011904Y-120701905D01*
X154964285Y-120511429D01*
X154964285Y-120273333D01*
X155011904Y-120082857D01*
X155059523Y-119987619D01*
X155107142Y-119940000D01*
X155202380Y-119892381D01*
X155916666Y-119987619D02*
X155964285Y-119940000D01*
X156059523Y-119892381D01*
X156297619Y-119892381D01*
X156392857Y-119940000D01*
X156440476Y-119987619D01*
X156488095Y-120082857D01*
X156488095Y-120178095D01*
X156440476Y-120320952D01*
X155869047Y-120892381D01*
X156488095Y-120892381D01*
X156821428Y-120892381D02*
X157345238Y-120225714D01*
X156821428Y-120225714D02*
X157345238Y-120892381D01*
X158250000Y-120892381D02*
X157678571Y-120892381D01*
X157964285Y-120892381D02*
X157964285Y-119892381D01*
X157869047Y-120035238D01*
X157773809Y-120130476D01*
X157678571Y-120178095D01*
X158583333Y-119892381D02*
X159250000Y-119892381D01*
X158821428Y-120892381D01*
X159392857Y-120987619D02*
X160154762Y-120987619D01*
X160583333Y-119892381D02*
X160773810Y-119892381D01*
X160869048Y-119940000D01*
X160964286Y-120035238D01*
X161011905Y-120225714D01*
X161011905Y-120559048D01*
X160964286Y-120749524D01*
X160869048Y-120844762D01*
X160773810Y-120892381D01*
X160583333Y-120892381D01*
X160488095Y-120844762D01*
X160392857Y-120749524D01*
X160345238Y-120559048D01*
X160345238Y-120225714D01*
X160392857Y-120035238D01*
X160488095Y-119940000D01*
X160583333Y-119892381D01*
X161869048Y-120892381D02*
X161869048Y-119892381D01*
X161869048Y-120844762D02*
X161773810Y-120892381D01*
X161583333Y-120892381D01*
X161488095Y-120844762D01*
X161440476Y-120797143D01*
X161392857Y-120701905D01*
X161392857Y-120416190D01*
X161440476Y-120320952D01*
X161488095Y-120273333D01*
X161583333Y-120225714D01*
X161773810Y-120225714D01*
X161869048Y-120273333D01*
X162773810Y-120892381D02*
X162773810Y-119892381D01*
X162773810Y-120844762D02*
X162678572Y-120892381D01*
X162488095Y-120892381D01*
X162392857Y-120844762D01*
X162345238Y-120797143D01*
X162297619Y-120701905D01*
X162297619Y-120416190D01*
X162345238Y-120320952D01*
X162392857Y-120273333D01*
X162488095Y-120225714D01*
X162678572Y-120225714D01*
X162773810Y-120273333D01*
X163011905Y-120987619D02*
X163773810Y-120987619D01*
X164011905Y-120368571D02*
X164345239Y-120368571D01*
X164488096Y-120892381D02*
X164011905Y-120892381D01*
X164011905Y-119892381D01*
X164488096Y-119892381D01*
X164821429Y-120225714D02*
X165059524Y-120892381D01*
X165297620Y-120225714D01*
X166059525Y-120844762D02*
X165964287Y-120892381D01*
X165773810Y-120892381D01*
X165678572Y-120844762D01*
X165630953Y-120749524D01*
X165630953Y-120368571D01*
X165678572Y-120273333D01*
X165773810Y-120225714D01*
X165964287Y-120225714D01*
X166059525Y-120273333D01*
X166107144Y-120368571D01*
X166107144Y-120463810D01*
X165630953Y-120559048D01*
X166535715Y-120225714D02*
X166535715Y-120892381D01*
X166535715Y-120320952D02*
X166583334Y-120273333D01*
X166678572Y-120225714D01*
X166821430Y-120225714D01*
X166916668Y-120273333D01*
X166964287Y-120368571D01*
X166964287Y-120892381D01*
X158202381Y-98123333D02*
X158916667Y-98123333D01*
X159059524Y-98170953D01*
X159154762Y-98266191D01*
X159202381Y-98409048D01*
X159202381Y-98504286D01*
X159202381Y-97123333D02*
X159202381Y-97694762D01*
X159202381Y-97409048D02*
X158202381Y-97409048D01*
X158345238Y-97504286D01*
X158440476Y-97599524D01*
X158488095Y-97694762D01*
X163123571Y-94567142D02*
X163171190Y-94424285D01*
X163218810Y-94376666D01*
X163314048Y-94329047D01*
X163456905Y-94329047D01*
X163552143Y-94376666D01*
X163599762Y-94424285D01*
X163647381Y-94519523D01*
X163647381Y-94900476D01*
X162647381Y-94900476D01*
X162647381Y-94567142D01*
X162695000Y-94471904D01*
X162742619Y-94424285D01*
X162837857Y-94376666D01*
X162933095Y-94376666D01*
X163028333Y-94424285D01*
X163075952Y-94471904D01*
X163123571Y-94567142D01*
X163123571Y-94900476D01*
X163552143Y-93329047D02*
X163599762Y-93376666D01*
X163647381Y-93519523D01*
X163647381Y-93614761D01*
X163599762Y-93757619D01*
X163504524Y-93852857D01*
X163409286Y-93900476D01*
X163218810Y-93948095D01*
X163075952Y-93948095D01*
X162885476Y-93900476D01*
X162790238Y-93852857D01*
X162695000Y-93757619D01*
X162647381Y-93614761D01*
X162647381Y-93519523D01*
X162695000Y-93376666D01*
X162742619Y-93329047D01*
X163075952Y-92757619D02*
X163028333Y-92852857D01*
X162980714Y-92900476D01*
X162885476Y-92948095D01*
X162837857Y-92948095D01*
X162742619Y-92900476D01*
X162695000Y-92852857D01*
X162647381Y-92757619D01*
X162647381Y-92567142D01*
X162695000Y-92471904D01*
X162742619Y-92424285D01*
X162837857Y-92376666D01*
X162885476Y-92376666D01*
X162980714Y-92424285D01*
X163028333Y-92471904D01*
X163075952Y-92567142D01*
X163075952Y-92757619D01*
X163123571Y-92852857D01*
X163171190Y-92900476D01*
X163266429Y-92948095D01*
X163456905Y-92948095D01*
X163552143Y-92900476D01*
X163599762Y-92852857D01*
X163647381Y-92757619D01*
X163647381Y-92567142D01*
X163599762Y-92471904D01*
X163552143Y-92424285D01*
X163456905Y-92376666D01*
X163266429Y-92376666D01*
X163171190Y-92424285D01*
X163123571Y-92471904D01*
X163075952Y-92567142D01*
X163647381Y-91424285D02*
X163647381Y-91995714D01*
X163647381Y-91710000D02*
X162647381Y-91710000D01*
X162790238Y-91805238D01*
X162885476Y-91900476D01*
X162933095Y-91995714D01*
X162647381Y-91090952D02*
X162647381Y-90424285D01*
X163647381Y-90852857D01*
D12*
X165687381Y-93618810D02*
X165639762Y-93595000D01*
X165592143Y-93547381D01*
X165520714Y-93475952D01*
X165473095Y-93452143D01*
X165425476Y-93452143D01*
X165449286Y-93571190D02*
X165401667Y-93547381D01*
X165354048Y-93499762D01*
X165330238Y-93404524D01*
X165330238Y-93237857D01*
X165354048Y-93142619D01*
X165401667Y-93095000D01*
X165449286Y-93071190D01*
X165544524Y-93071190D01*
X165592143Y-93095000D01*
X165639762Y-93142619D01*
X165663571Y-93237857D01*
X165663571Y-93404524D01*
X165639762Y-93499762D01*
X165592143Y-93547381D01*
X165544524Y-93571190D01*
X165449286Y-93571190D01*
X166139762Y-93571190D02*
X165854048Y-93571190D01*
X165996905Y-93571190D02*
X165996905Y-93071190D01*
X165949286Y-93142619D01*
X165901667Y-93190238D01*
X165854048Y-93214048D01*
D11*
X163163571Y-85042142D02*
X163211190Y-84899285D01*
X163258810Y-84851666D01*
X163354048Y-84804047D01*
X163496905Y-84804047D01*
X163592143Y-84851666D01*
X163639762Y-84899285D01*
X163687381Y-84994523D01*
X163687381Y-85375476D01*
X162687381Y-85375476D01*
X162687381Y-85042142D01*
X162735000Y-84946904D01*
X162782619Y-84899285D01*
X162877857Y-84851666D01*
X162973095Y-84851666D01*
X163068333Y-84899285D01*
X163115952Y-84946904D01*
X163163571Y-85042142D01*
X163163571Y-85375476D01*
X163592143Y-83804047D02*
X163639762Y-83851666D01*
X163687381Y-83994523D01*
X163687381Y-84089761D01*
X163639762Y-84232619D01*
X163544524Y-84327857D01*
X163449286Y-84375476D01*
X163258810Y-84423095D01*
X163115952Y-84423095D01*
X162925476Y-84375476D01*
X162830238Y-84327857D01*
X162735000Y-84232619D01*
X162687381Y-84089761D01*
X162687381Y-83994523D01*
X162735000Y-83851666D01*
X162782619Y-83804047D01*
X163115952Y-83232619D02*
X163068333Y-83327857D01*
X163020714Y-83375476D01*
X162925476Y-83423095D01*
X162877857Y-83423095D01*
X162782619Y-83375476D01*
X162735000Y-83327857D01*
X162687381Y-83232619D01*
X162687381Y-83042142D01*
X162735000Y-82946904D01*
X162782619Y-82899285D01*
X162877857Y-82851666D01*
X162925476Y-82851666D01*
X163020714Y-82899285D01*
X163068333Y-82946904D01*
X163115952Y-83042142D01*
X163115952Y-83232619D01*
X163163571Y-83327857D01*
X163211190Y-83375476D01*
X163306429Y-83423095D01*
X163496905Y-83423095D01*
X163592143Y-83375476D01*
X163639762Y-83327857D01*
X163687381Y-83232619D01*
X163687381Y-83042142D01*
X163639762Y-82946904D01*
X163592143Y-82899285D01*
X163496905Y-82851666D01*
X163306429Y-82851666D01*
X163211190Y-82899285D01*
X163163571Y-82946904D01*
X163115952Y-83042142D01*
X163687381Y-81899285D02*
X163687381Y-82470714D01*
X163687381Y-82185000D02*
X162687381Y-82185000D01*
X162830238Y-82280238D01*
X162925476Y-82375476D01*
X162973095Y-82470714D01*
X162687381Y-81565952D02*
X162687381Y-80899285D01*
X163687381Y-81327857D01*
D12*
X165687381Y-83458810D02*
X165639762Y-83435000D01*
X165592143Y-83387381D01*
X165520714Y-83315952D01*
X165473095Y-83292143D01*
X165425476Y-83292143D01*
X165449286Y-83411190D02*
X165401667Y-83387381D01*
X165354048Y-83339762D01*
X165330238Y-83244524D01*
X165330238Y-83077857D01*
X165354048Y-82982619D01*
X165401667Y-82935000D01*
X165449286Y-82911190D01*
X165544524Y-82911190D01*
X165592143Y-82935000D01*
X165639762Y-82982619D01*
X165663571Y-83077857D01*
X165663571Y-83244524D01*
X165639762Y-83339762D01*
X165592143Y-83387381D01*
X165544524Y-83411190D01*
X165449286Y-83411190D01*
X165854048Y-82958810D02*
X165877858Y-82935000D01*
X165925477Y-82911190D01*
X166044524Y-82911190D01*
X166092143Y-82935000D01*
X166115953Y-82958810D01*
X166139762Y-83006429D01*
X166139762Y-83054048D01*
X166115953Y-83125476D01*
X165830239Y-83411190D01*
X166139762Y-83411190D01*
D11*
X164949286Y-85865714D02*
X164949286Y-86532381D01*
X164711190Y-85484762D02*
X164473095Y-86199048D01*
X165092143Y-86199048D01*
X165377857Y-85532381D02*
X166044524Y-85532381D01*
X165615952Y-86532381D01*
X166425476Y-86532381D02*
X166425476Y-85532381D01*
X166996905Y-86532381D02*
X166568333Y-85960952D01*
X166996905Y-85532381D02*
X166425476Y-86103810D01*
D12*
X165668334Y-87810952D02*
X165535000Y-87620476D01*
X165439762Y-87810952D02*
X165439762Y-87410952D01*
X165592143Y-87410952D01*
X165630238Y-87430000D01*
X165649286Y-87449048D01*
X165668334Y-87487143D01*
X165668334Y-87544286D01*
X165649286Y-87582381D01*
X165630238Y-87601429D01*
X165592143Y-87620476D01*
X165439762Y-87620476D01*
X166049286Y-87810952D02*
X165820714Y-87810952D01*
X165935000Y-87810952D02*
X165935000Y-87410952D01*
X165896905Y-87468095D01*
X165858810Y-87506190D01*
X165820714Y-87525238D01*
D11*
X163335714Y-99210714D02*
X164002381Y-99210714D01*
X162954762Y-99448810D02*
X163669048Y-99686905D01*
X163669048Y-99067857D01*
X163002381Y-98782143D02*
X163002381Y-98115476D01*
X164002381Y-98544048D01*
X164002381Y-97734524D02*
X163002381Y-97734524D01*
X164002381Y-97163095D02*
X163430952Y-97591667D01*
X163002381Y-97163095D02*
X163573810Y-97734524D01*
D12*
X165280952Y-98491666D02*
X165090476Y-98625000D01*
X165280952Y-98720238D02*
X164880952Y-98720238D01*
X164880952Y-98567857D01*
X164900000Y-98529762D01*
X164919048Y-98510714D01*
X164957143Y-98491666D01*
X165014286Y-98491666D01*
X165052381Y-98510714D01*
X165071429Y-98529762D01*
X165090476Y-98567857D01*
X165090476Y-98720238D01*
X164919048Y-98339286D02*
X164900000Y-98320238D01*
X164880952Y-98282143D01*
X164880952Y-98186905D01*
X164900000Y-98148809D01*
X164919048Y-98129762D01*
X164957143Y-98110714D01*
X164995238Y-98110714D01*
X165052381Y-98129762D01*
X165280952Y-98358333D01*
X165280952Y-98110714D01*
M02*
