G04 #@! TF.FileFunction,Paste,Top*
%FSLAX46Y46*%
G04 Gerber Fmt 4.6, Leading zero omitted, Abs format (unit mm)*
G04 Created by KiCad (PCBNEW 4.0.7) date 02/10/22 14:09:14*
%MOMM*%
%LPD*%
G01*
G04 APERTURE LIST*
%ADD10C,0.100000*%
%ADD11R,0.800000X1.900000*%
%ADD12R,1.200000X0.900000*%
%ADD13R,0.900000X1.200000*%
G04 APERTURE END LIST*
D10*
D11*
X164785000Y-94845000D03*
X166685000Y-94845000D03*
X165735000Y-91845000D03*
X166685000Y-81685000D03*
X164785000Y-81685000D03*
X165735000Y-84685000D03*
D12*
X166835000Y-87630000D03*
X164635000Y-87630000D03*
D13*
X165100000Y-97325000D03*
X165100000Y-99525000D03*
M02*
