(kicad_pcb (version 20211014) (generator pcbnew)

  (general
    (thickness 1.6)
  )

  (paper "A4")
  (layers
    (0 "F.Cu" signal)
    (31 "B.Cu" signal)
    (32 "B.Adhes" user "B.Adhesive")
    (33 "F.Adhes" user "F.Adhesive")
    (34 "B.Paste" user)
    (35 "F.Paste" user)
    (36 "B.SilkS" user "B.Silkscreen")
    (37 "F.SilkS" user "F.Silkscreen")
    (38 "B.Mask" user)
    (39 "F.Mask" user)
    (40 "Dwgs.User" user "User.Drawings")
    (41 "Cmts.User" user "User.Comments")
    (42 "Eco1.User" user "User.Eco1")
    (43 "Eco2.User" user "User.Eco2")
    (44 "Edge.Cuts" user)
    (45 "Margin" user)
    (46 "B.CrtYd" user "B.Courtyard")
    (47 "F.CrtYd" user "F.Courtyard")
    (48 "B.Fab" user)
    (49 "F.Fab" user)
    (50 "User.1" user)
    (51 "User.2" user)
    (52 "User.3" user)
    (53 "User.4" user)
    (54 "User.5" user)
    (55 "User.6" user)
    (56 "User.7" user)
    (57 "User.8" user)
    (58 "User.9" user)
  )

  (setup
    (pad_to_mask_clearance 0)
    (aux_axis_origin 43.18 101.6)
    (grid_origin 43.18 101.6)
    (pcbplotparams
      (layerselection 0x00010fc_ffffffff)
      (disableapertmacros false)
      (usegerberextensions true)
      (usegerberattributes false)
      (usegerberadvancedattributes false)
      (creategerberjobfile false)
      (svguseinch false)
      (svgprecision 6)
      (excludeedgelayer true)
      (plotframeref false)
      (viasonmask false)
      (mode 1)
      (useauxorigin false)
      (hpglpennumber 1)
      (hpglpenspeed 20)
      (hpglpendiameter 15.000000)
      (dxfpolygonmode true)
      (dxfimperialunits true)
      (dxfusepcbnewfont true)
      (psnegative false)
      (psa4output false)
      (plotreference true)
      (plotvalue false)
      (plotinvisibletext false)
      (sketchpadsonfab false)
      (subtractmaskfromsilk true)
      (outputformat 1)
      (mirror false)
      (drillshape 0)
      (scaleselection 1)
      (outputdirectory "PCBWay/")
    )
  )

  (net 0 "")
  (net 1 "Net-(J1-Pad1)")
  (net 2 "Net-(J1-Pad2)")
  (net 3 "Net-(J1-Pad3)")
  (net 4 "Net-(J1-Pad4)")
  (net 5 "Net-(J3-Pad8)")
  (net 6 "Net-(J3-Pad7)")
  (net 7 "Net-(J3-Pad6)")
  (net 8 "Net-(J3-Pad4)")
  (net 9 "Net-(J3-Pad34)")
  (net 10 "Net-(J3-Pad33)")
  (net 11 "Net-(J3-Pad32)")
  (net 12 "Net-(J3-Pad31)")
  (net 13 "Net-(J3-Pad30)")
  (net 14 "Net-(J3-Pad3)")
  (net 15 "Net-(J3-Pad29)")
  (net 16 "Net-(J3-Pad28)")
  (net 17 "Net-(J3-Pad27)")
  (net 18 "Net-(J3-Pad26)")
  (net 19 "Net-(J3-Pad25)")
  (net 20 "Net-(J3-Pad24)")
  (net 21 "Net-(J3-Pad23)")
  (net 22 "Net-(J3-Pad22)")
  (net 23 "Net-(J3-Pad21)")
  (net 24 "Net-(J3-Pad20)")
  (net 25 "Net-(J3-Pad2)")
  (net 26 "Net-(J3-Pad19)")
  (net 27 "Net-(J3-Pad18)")
  (net 28 "Net-(J3-Pad17)")
  (net 29 "Net-(J3-Pad16)")
  (net 30 "Net-(J3-Pad15)")
  (net 31 "Net-(J3-Pad14)")
  (net 32 "Net-(J3-Pad13)")
  (net 33 "Net-(J3-Pad12)")
  (net 34 "Net-(J3-Pad11)")
  (net 35 "Net-(J3-Pad10)")
  (net 36 "Net-(J3-Pad1)")
  (net 37 "Net-(J3-Pad9)")
  (net 38 "Net-(J3-Pad5)")

  (footprint "Connector_IDC:IDC-Header_2x17_P2.54mm_Horizontal" (layer "F.Cu")
    (tedit 6235B1F1) (tstamp 2855af7d-c62f-44d8-b5d7-44a587ee2ffe)
    (at 57.22 84 180)
    (descr "Through hole IDC box header, 2x17, 2.54mm pitch, DIN 41651 / IEC 60603-13, double rows, https://docs.google.com/spreadsheets/d/16SsEcesNF15N3Lb4niX7dcUr-NY5_MFPQhobNuNppn4/edit#gid=0")
    (tags "Through hole horizontal IDC box header THT 2x17 2.54mm double row")
    (property "Sheetfile" "floppy outlet.kicad_sch")
    (property "Sheetname" "")
    (path "/4cd02004-9c6e-4103-8a51-6cc183539955")
    (attr through_hole)
    (fp_text reference "J4" (at 6.215 -6.1) (layer "F.SilkS")
      (effects (font (size 1 1) (thickness 0.15)))
      (tstamp 25f6c846-e053-4d31-a727-49ce112dc1b0)
    )
    (fp_text value "Floppy Data Connector" (at 6.215 46.74) (layer "F.Fab")
      (effects (font (size 1 1) (thickness 0.15)))
      (tstamp 98dfbdfa-669d-4bcc-9b6e-ba47870ce2ad)
    )
    (fp_text user "${REFERENCE}" (at 8.83 20.32 90) (layer "F.Fab")
      (effects (font (size 1 1) (thickness 0.15)))
      (tstamp 4f72ccfe-2bd3-4da2-bf18-d586ec339caa)
    )
    (fp_line (start -1.35 0) (end -2.35 -0.5) (layer "F.SilkS") (width 0.12) (tstamp 0ce6814e-a5c9-4a2e-8ace-5d7745bcafcc))
    (fp_line (start 4.27 -5.21) (end 13.39 -5.21) (layer "F.SilkS") (width 0.12) (tstamp 1c2b1df7-f23d-43bd-8745-c34dd1edafac))
    (fp_line (start -2.35 -0.5) (end -2.35 0.5) (layer "F.SilkS") (width 0.12) (tstamp 21afe26c-422b-4e3e-9c4d-49d3f2d514b4))
    (fp_line (start 13.39 45.85) (end 4.27 45.85) (layer "F.SilkS") (width 0.12) (tstamp 3df9ca64-253e-4018-b437-9de3cabc3ac9))
    (fp_line (start -2.35 0.5) (end -1.35 0) (layer "F.SilkS") (width 0.12) (tstamp 46665fb3-ddee-4685-aa48-c3427edac242))
    (fp_line (start 4.27 18.27) (end 13.39 18.27) (layer "F.SilkS") (width 0.12) (tstamp 62f59057-7422-46d8-b190-8343c534ba08))
    (fp_line (start 13.39 -5.21) (end 13.39 45.85) (layer "F.SilkS") (width 0.12) (tstamp b30067d4-d8bf-4b9d-8179-a86f7e3a0775))
    (fp_line (start 4.27 22.37) (end 13.39 22.37) (layer "F.SilkS") (width 0.12) (tstamp d5a1a74f-bbad-48d6-a1c3-f7ef491caaf8))
    (fp_line (start 4.27 45.85) (end 4.27 -5.21) (layer "F.SilkS") (width 0.12) (tstamp fa57424c-1a87-42d8-8df8-ed5f102301f4))
    (fp_line (start 13.78 46.24) (end 13.78 -5.6) (layer "F.CrtYd") (width 0.05) (tstamp 0e2518b0-5caf-4681-96b3-2298c18ff125))
    (fp_line (start -1.35 -5.6) (end -1.35 46.24) (layer "F.CrtYd") (width 0.05) (tstamp 1817cefd-b8ca-4556-9271-3e9d8dfc8a10))
    (fp_line (start -1.35 46.24) (end 13.78 46.24) (layer "F.CrtYd") (width 0.05) (tstamp 3426b454-b20f-4850-88a4-fac7337b0365))
    (fp_line (start 13.78 -5.6) (end -1.35 -5.6) (layer "F.CrtYd") (width 0.05) (tstamp b07fffe3-bb61-4cf8-84aa-2f38197465b3))
    (fp_line (start -0.32 4.76) (end -0.32 5.4) (layer "F.Fab") (width 0.1) (tstamp 048cdda1-492a-44b7-8874-786e0610904a))
    (fp_line (start 4.38 25.08) (end -0.32 25.08) (layer "F.Fab") (width 0.1) (tstamp 091e321f-fc25-4ea4-a9e8-5f94240b77d9))
    (fp_line (start -0.32 14.92) (end -0.32 15.56) (layer "F.Fab") (width 0.1) (tstamp 1050f150-0abd-49ec-9677-dc1a81653cbd))
    (fp_line (start -0.32 33.34) (end 4.38 33.34) (layer "F.Fab") (width 0.1) (tstamp 17ac2a03-0d42-4c4c-be6e-cefefa8e6181))
    (fp_line (start 4.38 32.7) (end -0.32 32.7) (layer "F.Fab") (width 0.1) (tstamp 1e4c6fc9-70c4-442b-8284-e985ffdc76f3))
    (fp_line (start 4.38 -0.32) (end -0.32 -0.32) (layer "F.Fab") (width 0.1) (tstamp 1fc0e99f-f78e-4916-9b50-293bc03c0b03))
    (fp_line (start 4.38 14.92) (end -0.32 14.92) (layer "F.Fab") (width 0.1) (tstamp 2d4626df-15f0-44cc-bd26-a1a067e52a79))
    (fp_line (start -0.32 35.88) (end 4.38 35.88) (layer "F.Fab") (width 0.1) (tstamp 31755e23-1578-4290-91c1-c1f100ac4d24))
    (fp_line (start -0.32 30.16) (end -0.32 30.8) (layer "F.Fab") (width 0.1) (tstamp 3df4d97e-2b48-4f61-b05f-5bd8049447e2))
    (fp_line (start 4.38 27.62) (end -0.32 27.62) (layer "F.Fab") (width 0.1) (tstamp 493c0c0c-b33e-4680-a111-5236bf32a1ef))
    (fp_line (start 4.38 35.24) (end -0.32 35.24) (layer "F.Fab") (width 0.1) (tstamp 4ba388ec-1785-4412-8081-33ae57dc423b))
    (fp_line (start -0.32 30.8) (end 4.38 30.8) (layer "F.Fab") (width 0.1) (tstamp 538394c3-b6e1-4e5d-9f13-5ecc558d538b))
    (fp_line (start 4.38 45.74) (end 4.38 -4.1) (layer "F.Fab") (width 0.1) (tstamp 58030d5a-aafe-4dca-9cf5-6df9de2ecc7d))
    (fp_line (start -0.32 18.1) (end 4.38 18.1) (layer "F.Fab") (width 0.1) (tstamp 59ec0d60-1bf7-4a4d-a8b4-0f5ae55bc888))
    (fp_line (start -0.32 38.42) (end 4.38 38.42) (layer "F.Fab") (width 0.1) (tstamp 5afd4c60-32ad-4ad5-a59b-d7151faeaa04))
    (fp_line (start -0.32 27.62) (end -0.32 28.26) (layer "F.Fab") (width 0.1) (tstamp 5eff7b89-7f1e-401c-8383-c01b65fc04e3))
    (fp_line (start -0.32 10.48) (end 4.38 10.48) (layer "F.Fab") (width 0.1) (tstamp 6047218d-ad10-4173-bb3f-54efe721c20b))
    (fp_line (start -0.32 23.18) (end 4.38 23.18) (layer "F.Fab") (width 0.1) (tstamp 655c151c-37b9-483d-8d5e-ab369f42a876))
    (fp_line (start -0.32 32.7) (end -0.32 33.34) (layer "F.Fab") (width 0.1) (tstamp 6c540e74-3608-474a-bfa7-5f50b93f28ef))
    (fp_line (start 4.38 12.38) (end -0.32 12.38) (layer "F.Fab") (width 0.1) (tstamp 6f678359-5e74-471b-a8de-cd320a0aa74f))
    (fp_line (start -0.32 28.26) (end 4.38 28.26) (layer "F.Fab") (width 0.1) (tstamp 78e84090-5a96-43a6-9661-13de7713e618))
    (fp_line (start 4.38 17.46) (end -0.32 17.46) (layer "F.Fab") (width 0.1) (tstamp 8326c5bf-d461-4c7d-87c5-b33468c4e0e4))
    (fp_line (start -0.32 37.78) (end -0.32 38.42) (layer "F.Fab") (width 0.1) (tstamp 833e9d24-f826-482c-ac39-3875c1e75ea5))
    (fp_line (start -0.32 17.46) (end -0.32 18.1) (layer "F.Fab") (width 0.1) (tstamp 8d42a99b-5ea5-45f2-a57f-1b1b778dc192))
    (fp_line (start 4.38 20) (end -0.32 20) (layer "F.Fab") (width 0.1) (tstamp 8ddd10f8-0402-4006-bb32-b8038bd2813c))
    (fp_line (start -0.32 25.72) (end 4.38 25.72) (layer "F.Fab") (width 0.1) (tstamp 95cc9e30-eb50-4939-8ec0-2734db5728f8))
    (fp_line (start -0.32 2.22) (end -0.32 2.86) (layer "F.Fab") (width 0.1) (tstamp 9cd65e94-0d9c-4751-9863-1313c78de2cd))
    (fp_line (start -0.32 15.56) (end 4.38 15.56) (layer "F.Fab") (width 0.1) (tstamp 9d2719d8-0e68-4176-82b8-042153f9bc96))
    (fp_line (start -0.32 25.08) (end -0.32 25.72) (layer "F.Fab") (width 0.1) (tstamp 9efef95a-acb1-4ac1-b076-dcf48444e6a8))
    (fp_line (start -0.32 9.84) (end -0.32 10.48) (layer "F.Fab") (width 0.1) (tstamp a3017b88-9d5e-4926-a2d5-93cfc5255755))
    (fp_line (start 4.38 2.22) (end -0.32 2.22) (layer "F.Fab") (width 0.1) (tstamp ad88223b-daa2-459b-8a82-54c29a3dd6b5))
    (fp_line (start -0.32 0.32) (end 4.38 0.32) (layer "F.Fab") (width 0.1) (tstamp b63202c8-2cdc-46e9-b292-31a32a9b7667))
    (fp_line (start -0.32 12.38) (end -0.32 13.02) (layer "F.Fab") (width 0.1) (tstamp bdfb4acf-3978-431e-9f80-746ef5e8d3d5))
    (fp_line (start 4.38 22.54) (end -0.32 22.54) (layer "F.Fab") (width 0.1) (tstamp be4c77cf-4b6e-47b3-a2f8-94d7ebd92d70))
    (fp_line (start -0.32 22.54) (end -0.32 23.18) (layer "F.Fab") (width 0.1) (tstamp c41d2210-ac40-494e-a62f-18de0012f6c5))
    (fp_line (start 4.38 18.27) (end 13.28 18.27) (layer "F.Fab") (width 0.1) (tstamp c5e19312-0d66-427b-a554-2f42bbd1dfdf))
    (fp_line (start 4.38 9.84) (end -0.32 9.84) (layer "F.Fab") (width 0.1) (tstamp cccb275f-bb12-40ec-96d6-01f6079e1e73))
    (fp_line (start 4.38 4.76) (end -0.32 4.76) (layer "F.Fab") (width 0.1) (tstamp cd247050-6d18-4c34-90de-a4bc237d26cd))
    (fp_line (start -0.32 40.32) (end -0.32 40.96) (layer "F.Fab") (width 0.1) (tstamp d2c6e6cf-4dbd-4ec1-aec5-9ef613b1c7c4))
    (fp_line (start -0.32 -0.32) (end -0.32 0.32) (layer "F.Fab") (width 0.1) (tstamp d311198d-78c1-46a6-bcaa-1b19b7babdbd))
    (fp_line (start 4.38 7.3) (end -0.32 7.3) (layer "F.Fab") (width 0.1) (tstamp d3f08339-25bd-482d-96ee-42dfaab871d1))
    (fp_line (start -0.32 20.64) (end 4.38 20.64) (layer "F.Fab") (width 0.1) (tstamp d5b7432f-56d2-4856-bba3-b5ff115264db))
    (fp_line (start 4.38 37.78) (end -0.32 37.78) (layer "F.Fab") (width 0.1) (tstamp dd228c0e-343c-4e12-aacd-33404ffd496f))
    (fp_line (start -0.32 13.02) (end 4.38 13.02) (layer "F.Fab") (width 0.1) (tstamp de05cd20-2a16-4c6b-9553-24ff6398a78a))
    (fp_line (start -0.32 7.94) (end 4.38 7.94) (layer "F.Fab") (width 0.1) (tstamp deebb378-0e68-4f97-b6ab-124ccf94c9e7))
    (fp_line (start -0.32 35.24) (end -0.32 35.88) (layer "F.Fab") (width 0.1) (tstamp df6fa2cb-8226-49e6-843c-c62f7e4ab582))
    (fp_line (start 4.38 -4.1) (end 5.38 -5.1) (layer "F.Fab") (width 0.1) (tstamp e5871204-ecd5-4ba0-8ae7-115d6af7de77))
    (fp_line (start 4.38 22.37) (end 13.28 22.37) (layer "F.Fab") (width 0.1) (tstamp e6eaa1e1-b7a5-45b2-a07d-037170f355fb))
    (fp_line (start -0.32 5.4) (end 4.38 5.4) (layer "F.Fab") (width 0.1) (tstamp e7e7f224-4fa2-4326-a5bb-5ec8e5d24746))
    (fp_line (start 13.28 45.74) (end 4.38 45.74) (layer "F.Fab") (width 0.1) (tstamp f0dba338-3387-46f5-bc80-58724756eb8d))
    (fp_line (start 4.38 40.32) (end -0.32 40.32) (layer "F.Fab") (width 0.1) (tstamp f44c0907-5f34-49db-8e8a-c71cb5de9cc5))
    (fp_line (start -0.32 20) (end -0.32 20.64) (layer "F.Fab") (width 0.1) (tstamp f527d1a6-57aa-4842-8423-1ce1065ea4cb))
    (fp_line (start 5.38 -5.1) (end 13.28 -5.1) (layer "F.Fab") (width 0.1) (tstamp f6d42436-bd32-4878-ac4a-e398e590873d))
    (fp_line (start -0.32 2.86) (end 4.38 2.86) (layer "F.Fab") (width 0.1) (tstamp faa5c36d-42f5-4a0d-9691-1ba6c7a52fb6))
    (fp_line (start 4.38 30.16) (end -0.32 30.16) (layer "F.Fab") (width 0.1) (tstamp fb0ce672-9038-427f-887a-f9a40efb450d))
    (fp_line (start -0.32 40.96) (end 4.38 40.96) (layer "F.Fab") (width 0.1) (tstamp fb816187-b562-47cd-a9cb-bbef4048ca42))
    (fp_line (start -0.32 7.3) (end -0.32 7.94) (layer "F.Fab") (width 0.1) (tstamp fe732144-34e2-43bf-9f2b-8d43da0d7536))
    (fp_line (start 13.28 -5.1) (end 13.28 45.74) (layer "F.Fab") (width 0.1) (tstamp fee4d546-93f5-4ba2-b322-2e9ca5ac7361))
    (pad "1" thru_hole circle (at 0 0 180) (size 1.7 1.7) (drill 1) (layers *.Cu "F.Mask") (remove_unused_layers) (keep_end_layers)
      (net 36 "Net-(J3-Pad1)") (pinfunction "Pin_1") (pintype "passive") (tstamp 873a6985-1b6c-4e64-8f1f-37b10d3e1cc0))
    (pad "2" thru_hole circle (at 2.54 0 180) (size 1.7 1.7) (drill 1) (layers *.Cu *.Mask) (remove_unused_layers) (keep_end_layers)
      (net 25 "Net-(J3-Pad2)") (pinfunction "Pin_2") (pintype "passive") (tstamp a32cc2d0-8501-41b9-83dc-7f36932fb136))
    (pad "3" thru_hole circle (at 0 2.54 180) (size 1.7 1.7) (drill 1) (layers *.Cu "F.Mask") (remove_unused_layers) (keep_end_layers)
      (net 14 "Net-(J3-Pad3)") (pinfunction "Pin_3") (pintype "passive") (tstamp bd75aed0-7f92-4f14-8bea-e1f55a96e95c))
    (pad "4" thru_hole circle (at 2.54 2.54 180) (size 1.7 1.7) (drill 1) (layers *.Cu *.Mask) (remove_unused_layers) (keep_end_layers)
      (net 8 "Net-(J3-Pad4)") (pinfunction "Pin_4") (pintype "passive") (tstamp 1ee5485f-e3b3-4976-9f8a-0f1b3710728f))
    (pad "5" thru_hole circle (at 0 5.08 180) (size 1.7 1.7) (drill 1) (layers *.Cu "F.Mask") (remove_unused_layers) (keep_end_layers)
      (net 38 "Net-(J3-Pad5)") (pinfunction "Pin_5") (pintype "passive") (tstamp 3f3fdb0a-c569-4a15-82b7-7011c1b87c99))
    (pad "6" thru_hole circle (at 2.54 5.08 180) (size 1.7 1.7) (drill 1) (layers *.Cu *.Mask) (remove_unused_layers) (keep_end_layers)
      (net 7 "Net-(J3-Pad6)") (pinfunction "Pin_6") (pintype "passive") (tstamp 2c3d25ed-ffe0-4382-a395-55b93b7c7342))
    (pad "7" thru_hole circle (at 0 7.62 180) (size 1.7 1.7) (drill 1) (layers *.Cu "F.Mask") (remove_unused_layers) (keep_end_layers)
      (net 6 "Net-(J3-Pad7)") (pinfunction "Pin_7") (pintype "passive") (tstamp 7e5126a6-a576-4ec7-bf29-c475e48b8135))
    (pad "8" thru_hole circle (at 2.54 7.62 180) (size 1.7 1.7) (drill 1) (layers *.Cu *.Mask) (remove_unused_layers) (keep_end_layers)
      (net 5 "Net-(J3-Pad8)") (pinfunction "Pin_8") (pintype "passive") (tstamp 5f99622a-cffd-440e-8cc1-ea88209406a3))
    (pad "9" thru_hole circle (at 0 10.16 180) (size 1.7 1.7) (drill 1) (layers *.Cu "F.Mask") (remove_unused_layers) (keep_end_layers)
      (net 37 "Net-(J3-Pad9)") (pinfunction "Pin_9") (pintype "passive") (tstamp 8caa679b-315f-4a1f-87f7-fc5f5ea02ad9))
    (pad "10" thru_hole circle (at 2.54 10.16 180) (size 1.7 1.7) (drill 1) (layers *.Cu *.Mask) (remove_unused_layers) (keep_end_layers)
      (net 35 "Net-(J3-Pad10)") (pinfunction "Pin_10") (pintype "passive") (tstamp d2637c60-857f-424c-a5ad-29890ed78783))
    (pad "11" thru_hole circle (at 0 12.7 180) (size 1.7 1.7) (drill 1) (layers *.Cu "F.Mask") (remove_unused_layers) (keep_end_layers)
      (net 34 "Net-(J3-Pad11)") (pinfunction "Pin_11") (pintype "passive") (tstamp 47dd2cab-b54a-45e8-b3c3-c7c78820b3d2))
    (pad "12" thru_hole circle (at 2.54 12.7 180) (size 1.7 1.7) (drill 1) (layers *.Cu *.Mask) (remove_unused_layers) (keep_end_layers)
      (net 33 "Net-(J3-Pad12)") (pinfunction "Pin_12") (pintype "passive") (tstamp a77220ea-30db-482e-bf63-d8ab058d655d))
    (pad "13" thru_hole circle (at 0 15.24 180) (size 1.7 1.7) (drill 1) (layers *.Cu "F.Mask") (remove_unused_layers) (keep_end_layers)
      (net 32 "Net-(J3-Pad13)") (pinfunction "Pin_13") (pintype "passive") (tstamp 0b4b0cca-bc57-4edc-9005-be5f4d0112cc))
    (pad "14" thru_hole circle (at 2.54 15.24 180) (size 1.7 1.7) (drill 1) (layers *.Cu *.Mask) (remove_unused_layers) (keep_end_layers)
      (net 31 "Net-(J3-Pad14)") (pinfunction "Pin_14") (pintype "passive") (tstamp c6eed186-75ce-43aa-bc7c-95651cee8ae6))
    (pad "15" thru_hole circle (at 0 17.78 180) (size 1.7 1.7) (drill 1) (layers *.Cu "F.Mask") (remove_unused_layers) (keep_end_layers)
      (net 30 "Net-(J3-Pad15)") (pinfunction "Pin_15") (pintype "passive") (tstamp 11b64c0e-7c0e-4214-88db-f85e6a304d32))
    (pad "16" thru_hole circle (at 2.54 17.78 180) (size 1.7 1.7) (drill 1) (layers *.Cu *.Mask) (remove_unused_layers) (keep_end_layers)
      (net 29 "Net-(J3-Pad16)") (pinfunction "Pin_16") (pintype "passive") (tstamp 7412b9e3-b079-48d7-bcae-f6f45dd60b0c))
    (pad "17" thru_hole circle (at 0 20.32 180) (size 1.7 1.7) (drill 1) (layers *.Cu "F.Mask") (remove_unused_layers) (keep_end_layers)
      (net 28 "Net-(J3-Pad17)") (pinfunction "Pin_17") (pintype "passive") (tstamp 4e815dd0-e84c-480c-8273-02c7bb69940c))
    (pad "18" thru_hole circle (at 2.54 20.32 180) (size 1.7 1.7) (drill 1) (layers *.Cu *.Mask) (remove_unused_layers) (keep_end_layers)
      (net 27 "Net-(J3-Pad18)") (pinfunction "Pin_18") (pintype "passive") (tstamp 69db48b5-9f27-4399-baf1-9b1234031105))
    (pad "19" thru_hole circle (at 0 22.86 180) (size 1.7 1.7) (drill 1) (layers *.Cu "F.Mask") (remove_unused_layers) (keep_end_layers)
      (net 26 "Net-(J3-Pad19)") (pinfunction "Pin_19") (pintype "passive") (tstamp 543ac558-0c92-469d-9720-527f96a7c56e))
    (pad "20" thru_hole circle (at 2.54 22.86 180) (size 1.7 1.7) (drill 1) (layers *.Cu *.Mask) (remove_unused_layers) (keep_end_layers)
      (net 24 "Net-(J3-Pad20)") (pinfunction "Pin_20") (pintype "passive") (tstamp 55f7c1eb-d87f-4506-91e4-1fafb2f6180f))
    (pad "21" thru_hole circle (at 0 25.4 180) (size 1.7 1.7) (drill 1) (layers *.Cu "F.Mask") (remove_unused_layers) (keep_end_layers)
      (net 23 "Net-(J3-Pad21)") (pinfunction "Pin_21") (pintype "passive") (tstamp 60b7aa7f-8ce7-46f9-ba0b-516a24897bea))
    (pad "22" thru_hole circle (at 2.54 25.4 180) (size 1.7 1.7) (drill 1) (layers *.Cu *.Mask) (remove_unused_layers) (keep_end_layers)
      (net 22 "Net-(J3-Pad22)") (pinfunction "Pin_22") (pintype "passive") (tstamp 76fd536e-75dd-4a2d-ab80-205422d057a8))
    (pad "23" thru_hole circle (at 0 27.94 180) (size 1.7 1.7) (drill 1) (layers *.Cu "F.Mask") (remove_unused_layers) (keep_end_layers)
      (net 21 "Net-(J3-Pad23)") (pinfunction "Pin_23") (pintype "passive") (tstamp ee3c4f67-6d51-4587-b02d-fa6a4db0d8d7))
    (pad "24" thru_hole circle (at 2.54 27.94 180) (size 1.7 1.7) (drill 1) (layers *.Cu *.Mask) (remove_unused_layers) (keep_end_layers)
      (net 20 "Net-(J3-Pad24)") (pinfunction "Pin_24") (pintype "passive") (tstamp a1bcb0d5-e9f3-4644-918b-6afa1774f9dc))
    (pad "25" thru_hole circle (at 0 30.48 180) (size 1.7 1.7) (drill 1) (layers *.Cu "F.Mask") (remove_unused_layers) (keep_end_layers)
      (net 19 "Net-(J3-Pad25)") (pinfunction "Pin_25") (pintype "passive") (tstamp 06fdbcb6-8344-4d9b-a49a-8b5ffb4a9489))
    (pad "26" thru_hole circle (at 2.54 30.48 180) (size 1.7 1.7) (drill 1) (layers *.Cu *.Mask) (remove_unused_layers) (keep_end_layers)
      (net 18 "Net-(J3-Pad26)") (pinfunction "Pin_26") (pintype "passive") (tstamp 9e4aff7f-6965-4755-bf5f-7b8d840b9146))
    (pad "27" thru_hole circle (at 0 33.02 180) (size 1.7 1.7) (drill 1) (layers *.Cu "F.Mask") (remove_unused_layers) (keep_end_layers)
      (net 17 "Net-(J3-Pad27)") (pinfunction "Pin_27") (pintype "passive") (tstamp a287d0b6-a0cc-4ab8-a767-37ba513442a2))
    (pad "28" thru_hole circle (at 2.54 33.02 180) (size 1.7 1.7) (drill 1) (layers *.Cu *.Mask) (remove_unused_layers) (keep_end_layers)
      (net 16 "Net-(J3-Pad28)") (pinfunction "Pin_28") (pintype "passive") (tstamp 1ebf09bd-2d15-4396-857b-c0ccf3cebbc9))
    (pad "29" thru_hole circle (at 0 35.56 180) (size 1.7 1.7) (drill 1) (layers *.Cu "F.Mask") (remove_unused_layers) (keep_end_layers)
      (net 15 "Net-(J3-Pad29)") (pinfunction "Pin_29") (pintype "passive") (tstamp b7ec5d28-5fcd-4291-9aad-d9ba679f6f4d))
    (pad "30" thru_hole circle (at 2.54 35.56 180) (size 1.7 1.7) (drill 1) (layers *.Cu *.Mask) (remove_unused_layers) (keep_end_layers)
      (net 13 "Net-(J3-Pad30)") (pinfunction "Pin_30") (pintype "passive") (tstamp 4666ef9d-70a2-47ea-a6c0-8679e556cea6))
    (pad "31" thru_hole circle (at 0 38.1 180) (size 1.7 1.7) (drill 1) (layers *.Cu "F.Mask") (remove_unused_layers) (keep_end_layers)
      (net 12 "Net-(J3-Pad31)") (pinfunction "Pin_31") (pintype "passive") (tstamp ecedd621-d4d0-436c-8911-69ce20d76bb2))
    (pad "32" thru_hole circle (at 2.54 38.1 180) (size 1.7 1.7) (drill 1) (layers *.Cu *.Mask) (remove_unused_layers) (keep_end_layers)
      (net 11 "Net-(J3-Pad32)") (pinfunction "Pin_32") (pintype "passive") (tstamp 71b6ff5c-c756-4b20-8a74-b3c02d8d7498))
    (pad "33" thru_hole circle (at 0 40.64 180) (size 1.7 1.7) (drill 1) (layers *.Cu "F.Mask") (remove_unused_layers) (keep_end_layers)
      (net 10 "Net-(J3-Pad33)") (pinfunction "Pin_33") (pintype "passive") (tstamp d2c1843d-d146-46ac-8a5a-3aae15344d06))
    (pad "34" thru_hole circle (at 2.54 40.64 180) (size 1.7 1.7) (drill 1) (layers *.Cu *.Mask) (remove_unused_layers) (keep_end_layers)
      (net 9 "Net-(J3-Pad34)") (pinfunction "Pin_34") (pintype "passive") (tstamp cfa2e14c-2ae9-44a7-9507-649c0d067064))
    (model "${KICAD6_3DMODEL_DIR}/Connector_IDC.3dshapes/IDC-Header_2x17_P2.54mm_Horizontal.wrl"
      (offset (xyz 0 0 0))
      (scale (xyz 1 1 1))
      (rotate (xyz 0 0 0))
    )
  )

  (footprint "Gotek_Floppy_Disk_Emulator_V2:PinHeader_1x04_P2.54mm_Horizontal" (layer "F.Cu")
    (tedit 5E19BBA3) (tstamp b3b1beb9-ce17-4882-bb4d-7e5a00c65d48)
    (at 56.385 25.57)
    (descr "Through hole angled pin header, 1x04, 2.54mm pitch, 6mm pin length, single row")
    (tags "Through hole angled pin header THT 1x04 2.54mm single row")
    (property "Sheetfile" "floppy outlet.kicad_sch")
    (property "Sheetname" "")
    (path "/e2f7ba55-1651-4c65-bbe8-376975555f56")
    (attr through_hole)
    (fp_text reference "J1" (at 2.54 -1.27 180) (layer "F.SilkS")
      (effects (font (size 1 1) (thickness 0.15)))
      (tstamp a53767ed-bb28-4f90-abe0-e0ea734812a4)
    )
    (fp_text value "Power Connector" (at -4.385 9.89 180) (layer "F.Fab")
      (effects (font (size 1 1) (thickness 0.15)))
      (tstamp 5fc9acb6-6dbb-4598-825b-4b9e7c4c67c4)
    )
    (fp_text user "${REFERENCE}" (at -2.77 3.81 90) (layer "F.Fab")
      (effects (font (size 1 1) (thickness 0.15)))
      (tstamp 18b7e157-ae67-48ad-bd7c-9fef6fe45b22)
    )
    (fp_line (start -1.44 1.27) (end -4.1 1.27) (layer "F.SilkS") (width 0.12) (tstamp 03c7f780-fc1b-487a-b30d-567d6c09fdc8))
    (fp_line (start -4.1 0.04) (end -10.1 0.04) (layer "F.SilkS") (width 0.12) (tstamp 0ae82096-0994-4fb0-9a2a-d4ac4804abac))
    (fp_line (start -1.042929 5.46) (end -1.44 5.46) (layer "F.SilkS") (width 0.12) (tstamp 0cc45b5b-96b3-4284-9cae-a3a9e324a916))
    (fp_line (start -10.1 -0.38) (end -10.1 0.38) (layer "F.SilkS") (width 0.12) (tstamp 0f324b67-75ef-407f-8dbc-3c1fc5c2abba))
    (fp_line (start -4.1 0.16) (end -10.1 0.16) (layer "F.SilkS") (width 0.12) (tstamp 0fdc6f30-77bc-4e9b-8665-c8aa9acf5bf9))
    (fp_line (start -1.042929 7.24) (end -1.44 7.24) (layer "F.SilkS") (width 0.12) (tstamp 109caac1-5036-4f23-9a66-f569d871501b))
    (fp_line (start -1.042929 8) (end -1.44 8) (layer "F.SilkS") (width 0.12) (tstamp 19b0959e-a79b-43b2-a5ad-525ced7e9131))
    (fp_line (start -4.1 -0.38) (end -10.1 -0.38) (layer "F.SilkS") (width 0.12) (tstamp 1c68b844-c861-46b7-b734-0242168a4220))
    (fp_line (start -4.1 4.7) (end -10.1 4.7) (layer "F.SilkS") (width 0.12) (tstamp 1f8b2c0c-b042-4e2e-80f6-4959a27b238f))
    (fp_line (start -10.1 8) (end -4.1 8) (layer "F.SilkS") (width 0.12) (tstamp 31540a7e-dc9e-4e4d-96b1-dab15efa5f4b))
    (fp_line (start -4.1 0.28) (end -10.1 0.28) (layer "F.SilkS") (width 0.12) (tstamp 4107d40a-e5df-4255-aacc-13f9928e090c))
    (fp_line (start -10.1 5.46) (end -4.1 5.46) (layer "F.SilkS") (width 0.12) (tstamp 4a850cb6-bb24-4274-a902-e49f34f0a0e3))
    (fp_line (start -4.1 -1.33) (end -1.44 -1.33) (layer "F.SilkS") (width 0.12) (tstamp 4b03e854-02fe-44cc-bece-f8268b7cae54))
    (fp_line (start -1.042929 4.7) (end -1.44 4.7) (layer "F.SilkS") (width 0.12) (tstamp 6b7c1048-12b6-46b2-b762-fa3ad30472dd))
    (fp_line (start -1.44 3.81) (end -4.1 3.81) (layer "F.SilkS") (width 0.12) (tstamp 700e8b73-5976-423f-a3f3-ab3d9f3e9760))
    (fp_line (start -1.44 -1.33) (end -1.44 8.95) (layer "F.SilkS") (width 0.12) (tstamp 752417ee-7d0b-4ac8-a22c-26669881a2ab))
    (fp_line (start -1.042929 2.16) (end -1.44 2.16) (layer "F.SilkS") (width 0.12) (tstamp 79e31048-072a-4a40-a625-26bb0b5f046b))
    (fp_line (start 1.27 -1.27) (end 0 -1.27) (layer "F.SilkS") (width 0.12) (tstamp 7c04618d-9115-4179-b234-a8faf854ea92))
    (fp_line (start -4.1 -0.2) (end -10.1 -0.2) (layer "F.SilkS") (width 0.12) (tstamp 8195a7cf-4576-44dd-9e0e-ee048fdb93dd))
    (fp_line (start -10.1 7.24) (end -10.1 8) (layer "F.SilkS") (width 0.12) (tstamp 8c1605f9-6c91-4701-96bf-e753661d5e23))
    (fp_line (start -1.042929 2.92) (end -1.44 2.92) (layer "F.SilkS") (width 0.12) (tstamp b4300db7-1220-431a-b7c3-2edbdf8fa6fc))
    (fp_line (start -4.1 8.95) (end -4.1 -1.33) (layer "F.SilkS") (width 0.12) (tstamp b5071759-a4d7-4769-be02-251f23cd4454))
    (fp_line (start -4.1 2.16) (end -10.1 2.16) (layer "F.SilkS") (width 0.12) (tstamp b873bc5d-a9af-4bd9-afcb-87ce4d417120))
    (fp_line (start -1.11 -0.38) (end -1.44 -0.38) (layer "F.SilkS") (width 0.12) (tstamp b9bb0e73-161a-4d06-b6eb-a9f66d8a95f5))
    (fp_line (start -1.11 0.38) (end -1.44 0.38) (layer "F.SilkS") (width 0.12) (tstamp c04386e0-b49e-4fff-b380-675af13a62cb))
    (fp_line (start -10.1 2.92) (end -4.1 2.92) (layer "F.SilkS") (width 0.12) (tstamp c76d4423-ef1b-4a6f-8176-33d65f2877bb))
    (fp_line (start -1.44 8.95) (end -4.1 8.95) (layer "F.SilkS") (width 0.12) (tstamp cada57e2-1fa7-4b9d-a2a0-2218773d5c50))
    (fp_line (start -10.1 0.38) (end -4.1 0.38) (layer "F.SilkS") (width 0.12) (tstamp d2d7bea6-0c22-495f-8666-323b30e03150))
    (fp_line (start -4.1 -0.08) (end -10.1 -0.08) (layer "F.SilkS") (width 0.12) (tstamp e0f06b5c-de63-4833-a591-ca9e19217a35))
    (fp_line (start -10.1 4.7) (end -10.1 5.46) (layer "F.SilkS") (width 0.12) (tstamp e5203297-b913-4288-a576-12a92185cb52))
    (fp_line (start 1.27 0) (end 1.27 -1.27) (layer "F.SilkS") (width 0.12) (tstamp e67b9f8c-019b-4145-98a4-96545f6bb128))
    (fp_line (start -4.1 -0.32) (end -10.1 -0.32) (layer "F.SilkS") (width 0.12) (tstamp e7bb7815-0d52-4bb8-b29a-8cf960bd2905))
    (fp_line (start -4.1 7.24) (end -10.1 7.24) (layer "F.SilkS") (width 0.12) (tstamp f1447ad6-651c-45be-a2d6-33bddf672c2c))
    (fp_line (start -1.44 6.35) (end -4.1 6.35) (layer "F.SilkS") (width 0.12) (tstamp f6c644f4-3036-41a6-9e14-2c08c079c6cd))
    (fp_line (start -10.1 2.16) (end -10.1 2.92) (layer "F.SilkS") (width 0.12) (tstamp f7667b23-296e-4362-a7e3-949632c8954b))
    (fp_line (start -10.55 -1.8) (end 1.8 -1.8) (layer "F.CrtYd") (width 0.05) (tstamp 0f31f11f-c374-4640-b9a4-07bbdba8d354))
    (fp_line (start -10.55 9.4) (end -10.55 -1.8) (layer "F.CrtYd") (width 0.05) (tstamp 998b7fa5-31a5-472e-9572-49d5226d6098))
    (fp_line (start 1.8 9.4) (end -10.55 9.4) (layer "F.CrtYd") (width 0.05) (tstamp e4d2f565-25a0-48c6-be59-f4bf31ad2558))
    (fp_line (start 1.8 -1.8) (end 1.8 9.4) (layer "F.CrtYd") (width 0.05) (tstamp e502d1d5-04b0-4d4b-b5c3-8c52d09668e7))
    (fp_line (start 0.32 2.86) (end -1.5 2.86) (layer "F.Fab") (width 0.1) (tstamp 026ac84e-b8b2-4dd2-b675-8323c24fd778))
    (fp_line (start -1.5 8.89) (end -1.5 -0.635) (layer "F.Fab") (width 0.1) (tstamp 088f77ba-fca9-42b3-876e-a6937267f957))
    (fp_line (start -4.04 2.22) (end -10.04 2.22) (layer "F.Fab") (width 0.1) (tstamp 0bcafe80-ffba-4f1e-ae51-95a595b006db))
    (fp_line (start -10.04 7.3) (end -10.04 7.94) (layer "F.Fab") (width 0.1) (tstamp 224768bc-6009-43ba-aa4a-70cbaa15b5a3))
    (fp_line (start 0.32 0.32) (end -1.5 0.32) (layer "F.Fab") (width 0.1) (tstamp 26801cfb-b53b-4a6a-a2f4-5f4986565765))
    (fp_line (start 0.32 2.22) (end -1.5 2.22) (layer "F.Fab") (width 0.1) (tstamp 34cdc1c9-c9e2-44c4-9677-c1c7d7efd83d))
    (fp_line (start 0.32 5.4) (end -1.5 5.4) (layer "F.Fab") (width 0.1) (tstamp 34d03349-6d78-4165-a683-2d8b76f2bae8))
    (fp_line (start 0.32 4.76) (end -1.5 4.76) (layer "F.Fab") (width 0.1) (tstamp 37b6c6d6-3e12-4736-912a-ea6e2bf06721))
    (fp_line (start 0.32 -0.32) (end -1.5 -0.32) (layer "F.Fab") (width 0.1) (tstamp 6f80f798-dc24-438f-a1eb-4ee2936267c8))
    (fp_line (start -4.04 8.89) (end -1.5 8.89) (layer "F.Fab") (width 0.1) (tstamp 71989e06-8659-4605-b2da-4f729cc41263))
    (fp_line (start -4.04 2.86) (end -10.04 2.86) (layer "F.Fab") (width 0.1) (tstamp 86dc7a78-7d51-4111-9eea-8a8f7977eb16))
    (fp_line (start -4.04 5.4) (end -10.04 5.4) (layer "F.Fab") (width 0.1) (tstamp 88d2c4b8-79f2-4e8b-9f70-b7e0ed9c70f8))
    (fp_line (start 0.32 7.3) (end 0.32 7.94) (layer "F.Fab") (width 0.1) (tstamp 89c0bc4d-eee5-4a77-ac35-d30b35db5cbe))
    (fp_line (start -4.04 -1.27) (end -4.04 8.89) (layer "F.Fab") (width 0.1) (tstamp 9a0b74a5-4879-4b51-8e8e-6d85a0107422))
    (fp_line (start -4.04 7.94) (end -10.04 7.94) (layer "F.Fab") (width 0.1) (tstamp 9f80220c-1612-4589-b9ca-a5579617bdb8))
    (fp_line (start -10.04 4.76) (end -10.04 5.4) (layer "F.Fab") (width 0.1) (tstamp a7531a95-7ca1-4f34-955e-18120cec99e6))
    (fp_line (start -4.04 -0.32) (end -10.04 -0.32) (layer "F.Fab") (width 0.1) (tstamp aa79024d-ca7e-4c24-b127-7df08bbd0c75))
    (fp_line (start 0.32 4.76) (end 0.32 5.4) (layer "F.Fab") (width 0.1) (tstamp bb4b1afc-c46e-451d-8dad-36b7dec82f26))
    (fp_line (start -4.04 0.32) (end -10.04 0.32) (layer "F.Fab") (width 0.1) (tstamp c49d23ab-146d-4089-864f-2d22b5b414b9))
    (fp_line (start -10.04 -0.32) (end -10.04 0.32) (layer "F.Fab") (width 0.1) (tstamp c7af8405-da2e-4a34-b9b8-518f342f8995))
    (fp_line (start 0.32 7.94) (end -1.5 7.94) (layer "F.Fab") (width 0.1) (tstamp d21cc5e4-177a-4e1d-a8d5-060ed33e5b8e))
    (fp_line (start 0.32 2.22) (end 0.32 2.86) (layer "F.Fab") (width 0.1) (tstamp da25bf79-0abb-4fac-a221-ca5c574dfc29))
    (fp_line (start 0.32 7.3) (end -1.5 7.3) (layer "F.Fab") (width 0.1) (tstamp e1c30a32-820e-4b17-aec9-5cb8b76f0ccc))
    (fp_line (start -10.04 2.22) (end -10.04 2.86) (layer "F.Fab") (width 0.1) (tstamp e32ee344-1030-4498-9cac-bfbf7540faf4))
    (fp_line (start -2.135 -1.27) (end -4.04 -1.27) (layer "F.Fab") (width 0.1) (tstamp eae14f5f-515c-4a6f-ad0e-e8ef233d14bf))
    (fp_line (start -1.5 -0.635) (end -2.135 -1.27) (layer "F.Fab") (width 0.1) (tstamp f66398f1-1ae7-4d4d-939f-958c174c6bce))
    (fp_line (start 0.32 -0.32) (end 0.32 0.32) (layer "F.Fab") (width 0.1) (tstamp f78e02cd-9600-4173-be8d-67e530b5d19f))
    (fp_line (start -4.04 4.76) (end -10.04 4.76) (layer "F.Fab") (width 0.1) (tstamp f8fc38ec-0b98-40bc-ae2f-e5cc29973bca))
    (fp_line (start -4.04 7.3) (end -10.04 7.3) (layer "F.Fab") (width 0.1) (tstamp fef37e8b-0ff0-4da2-8a57-acaf19551d1a))
    (pad "1" thru_hole rect locked (at 0 0) (size 1.7 1.7) (drill 1) (layers *.Cu *.Mask) (remove_unused_layers) (keep_end_layers)
      (net 1 "Net-(J1-Pad1)") (pinfunction "Pin_1") (pintype "passive") (tstamp 917920ab-0c6e-4927-974d-ef342cdd4f63))
    (pad "2" thru_hole oval locked (at 0 2.54) (size 1.7 1.7) (drill 1) (layers *.Cu *.Mask) (remove_unused_layers) (keep_end_layers)
      (net 2 "Net-(J1-Pad2)") (pinfunction "Pin_2") (pintype "passive") (tstamp d69a5fdf-de15-4ec9-94f6-f9ee2f4b69fa))
    (pad "3" thru_hole oval locked (at 0 5.08) (size 1.7 1.7) (drill 1) (layers *.Cu *.Mask) (remove_unused_layers) (keep_end_layers)
      (net 3 "Net-(J1-Pad3)") (pinfunction "Pin_3") (pintype "passive") (tstamp 6f675e5f-8fe6-4148-baf1-da97afc770f8))
    (pad "4" thru_hole oval locked (at 0 7.62) (size 1.7 1.7) (drill 1) (layers *.Cu *.Mask) (remove_unused_layers) (keep_end_layers)
      (net 4 "Net-(J1-Pad4)") (pinfunction "Pin_4") (pintype "passive") (tstamp 6e435cd4-da2b-4602-a0aa-5dd988834dff))
    (model "${KISYS3DMOD}/Connector_PinHeader_2.54mm.3dshapes/PinHeader_1x04_P2.54mm_Horizontal.wrl" hide
      (offset (xyz 0 0 0))
      (scale (xyz 1 1 1))
      (rotate (xyz 0 0 180))
    )
    (model "${KICAD6_3DMODEL_DIR}/Connector_Berg.3dshapes/small 4p -(M)-R.STEP" hide
      (offset (xyz -3.8 -3.8 -1.5))
      (scale (xyz 1 1 1))
      (rotate (xyz -90 0 90))
    )
    (model "${KIPRJMOD}/libs/MOLEX_1718573004/1718573004.stp"
      (offset (xyz -4.3 -3.8 3.1))
      (scale (xyz 1 1 1))
      (rotate (xyz -180 0 90))
    )
    (model "${KIPRJMOD}/libs/SWR25X-NRTC-S04-RB-BA/SWR25X-NRTC-S04-RB-BA.STEP" hide
      (offset (xyz -8.5 1.9 0))
      (scale (xyz 1 1 1))
      (rotate (xyz 0 0 -90))
    )
  )

  (footprint "Gotek_Floppy_Disk_Emulator_V2:PinHeader_1x04_P2.54mm_Horizontal" (layer "B.Cu")
    (tedit 5E19BBA3) (tstamp 268c1014-a208-40b5-8a87-d93dfb648d88)
    (at 61.715 25.6 180)
    (descr "Through hole angled pin header, 1x04, 2.54mm pitch, 6mm pin length, single row")
    (tags "Through hole angled pin header THT 1x04 2.54mm single row")
    (property "Sheetfile" "floppy outlet.kicad_sch")
    (property "Sheetname" "")
    (path "/5ffb7552-b486-4e9b-b04c-d3c56e8b8e0d")
    (attr through_hole)
    (fp_text reference "J2" (at 2.54 1.27) (layer "B.SilkS")
      (effects (font (size 1 1) (thickness 0.15)) (justify mirror))
      (tstamp 386ad9e3-71fa-420f-8722-88548b024fc5)
    )
    (fp_text value "Power Connector" (at -4.385 -9.89) (layer "B.Fab")
      (effects (font (size 1 1) (thickness 0.15)) (justify mirror))
      (tstamp 8cb2cd3a-4ef9-4ae5-b6bc-2b1d16f657d6)
    )
    (fp_text user "${REFERENCE}" (at -2.77 -3.81 90) (layer "B.Fab")
      (effects (font (size 1 1) (thickness 0.15)) (justify mirror))
      (tstamp 87a1984f-543d-4f2e-ad8a-7a3a24ee6047)
    )
    (fp_line (start -10.1 -4.7) (end -10.1 -5.46) (layer "B.SilkS") (width 0.12) (tstamp 0b9f21ed-3d41-4f23-ae45-74117a5f3153))
    (fp_line (start -1.11 -0.38) (end -1.44 -0.38) (layer "B.SilkS") (width 0.12) (tstamp 1b023dd4-5185-4576-b544-68a05b9c360b))
    (fp_line (start -1.042929 -8) (end -1.44 -8) (layer "B.SilkS") (width 0.12) (tstamp 212bf70c-2324-47d9-8700-59771063baeb))
    (fp_line (start -4.1 0.32) (end -10.1 0.32) (layer "B.SilkS") (width 0.12) (tstamp 2c95b9a6-9c71-4108-9cde-57ddfdd2dd19))
    (fp_line (start -1.042929 -2.92) (end -1.44 -2.92) (layer "B.SilkS") (width 0.12) (tstamp 3249bd81-9fd4-4194-9b4f-2e333b2195b8))
    (fp_line (start 1.27 1.27) (end 0 1.27) (layer "B.SilkS") (width 0.12) (tstamp 347562f5-b152-4e7b-8a69-40ca6daaaad4))
    (fp_line (start -1.44 -3.81) (end -4.1 -3.81) (layer "B.SilkS") (width 0.12) (tstamp 3efa2ece-8f3f-4a8c-96e9-6ab3ec6f1f70))
    (fp_line (start -1.042929 -4.7) (end -1.44 -4.7) (layer "B.SilkS") (width 0.12) (tstamp 430d6d73-9de6-41ca-b788-178d709f4aae))
    (fp_line (start -4.1 0.38) (end -10.1 0.38) (layer "B.SilkS") (width 0.12) (tstamp 44035e53-ff94-45ad-801f-55a1ce042a0d))
    (fp_line (start -1.44 -1.27) (end -4.1 -1.27) (layer "B.SilkS") (width 0.12) (tstamp 5d49e9a6-41dd-4072-adde-ef1036c1979b))
    (fp_line (start -4.1 -0.28) (end -10.1 -0.28) (layer "B.SilkS") (width 0.12) (tstamp 6a2bcc72-047b-4846-8583-1109e3552669))
    (fp_line (start -1.44 1.33) (end -1.44 -8.95) (layer "B.SilkS") (width 0.12) (tstamp 70d34adf-9bd8-469e-8c77-5c0d7adf511e))
    (fp_line (start -4.1 -8.95) (end -4.1 1.33) (layer "B.SilkS") (width 0.12) (tstamp 718e5c6d-0e4c-46d8-a149-2f2bfc54c7f1))
    (fp_line (start -10.1 -0.38) (end -4.1 -0.38) (layer "B.SilkS") (width 0.12) (tstamp 76afa8e0-9b3a-439d-843c-ad039d3b6354))
    (fp_line (start -10.1 -5.46) (end -4.1 -5.46) (layer "B.SilkS") (width 0.12) (tstamp 775e8983-a723-43c5-bf00-61681f0840f3))
    (fp_line (start -1.44 -6.35) (end -4.1 -6.35) (layer "B.SilkS") (width 0.12) (tstamp 7b766787-7689-40b8-9ef5-c0b1af45a9ae))
    (fp_line (start -10.1 0.38) (end -10.1 -0.38) (layer "B.SilkS") (width 0.12) (tstamp 7f9683c1-2203-43df-8fa1-719a0dc360df))
    (fp_line (start 1.27 0) (end 1.27 1.27) (layer "B.SilkS") (width 0.12) (tstamp 8486c294-aa7e-43c3-b257-1ca3356dd17a))
    (fp_line (start -1.11 0.38) (end -1.44 0.38) (layer "B.SilkS") (width 0.12) (tstamp 90f81af1-b6de-44aa-a46b-6504a157ce6c))
    (fp_line (start -1.44 -8.95) (end -4.1 -8.95) (layer "B.SilkS") (width 0.12) (tstamp 946404ba-9297-43ec-9d67-30184041145f))
    (fp_line (start -4.1 -2.16) (end -10.1 -2.16) (layer "B.SilkS") (width 0.12) (tstamp 9e0e6fc0-a269-4822-b93d-4c5e6689ff11))
    (fp_line (start -4.1 1.33) (end -1.44 1.33) (layer "B.SilkS") (width 0.12) (tstamp a0e7a81b-2259-4f8d-8368-ba75f2004714))
    (fp_line (start -10.1 -2.92) (end -4.1 -2.92) (layer "B.SilkS") (width 0.12) (tstamp a64aeb89-c24a-493b-9aab-87a6be930bde))
    (fp_line (start -4.1 0.08) (end -10.1 0.08) (layer "B.SilkS") (width 0.12) (tstamp a76a574b-1cac-43eb-81e6-0e2e278cea39))
    (fp_line (start -4.1 -7.24) (end -10.1 -7.24) (layer "B.SilkS") (width 0.12) (tstamp aee7520e-3bfc-435f-a66b-1dd1f5aa6a87))
    (fp_line (start -1.042929 -5.46) (end -1.44 -5.46) (layer "B.SilkS") (width 0.12) (tstamp b0054ce1-b60e-41de-a6a2-bf712784dd39))
    (fp_line (start -1.042929 -7.24) (end -1.44 -7.24) (layer "B.SilkS") (width 0.12) (tstamp be2983fa-f06e-485e-bea1-3dd96b916ec5))
    (fp_line (start -10.1 -8) (end -4.1 -8) (layer "B.SilkS") (width 0.12) (tstamp c873689a-d206-42f5-aead-9199b4d63f51))
    (fp_line (start -4.1 -0.04) (end -10.1 -0.04) (layer "B.SilkS") (width 0.12) (tstamp c8ab8246-b2bb-4b06-b45e-2548482466fd))
    (fp_line (start -1.042929 -2.16) (end -1.44 -2.16) (layer "B.SilkS") (width 0.12) (tstamp cb083d38-4f11-4a80-8b19-ab751c405e4a))
    (fp_line (start -10.1 -7.24) (end -10.1 -8) (layer "B.SilkS") (width 0.12) (tstamp cbde200f-1075-469a-89f8-abbdcf30e36a))
    (fp_line (start -4.1 -4.7) (end -10.1 -4.7) (layer "B.SilkS") (width 0.12) (tstamp cee2f43a-7d22-4585-a857-73949bd17a9d))
    (fp_line (start -4.1 -0.16) (end -10.1 -0.16) (layer "B.SilkS") (width 0.12) (tstamp dc1d84c8-33da-4489-be8e-2a1de3001779))
    (fp_line (start -10.1 -2.16) (end -10.1 -2.92) (layer "B.SilkS") (width 0.12) (tstamp df2a6036-7274-4398-9365-148b6ddab90d))
    (fp_line (start -4.1 0.2) (end -10.1 0.2) (layer "B.SilkS") (width 0.12) (tstamp f50dae73-c5b5-475d-ac8c-5b555be54fa3))
    (fp_line (start 1.8 -9.4) (end -10.55 -9.4) (layer "B.CrtYd") (width 0.05) (tstamp 10d8ad0e-6a08-4053-92aa-23a15910fd21))
    (fp_line (start 1.8 1.8) (end 1.8 -9.4) (layer "B.CrtYd") (width 0.05) (tstamp 2b64d2cb-d62a-4762-97ea-f1b0d4293c4f))
    (fp_line (start -10.55 1.8) (end 1.8 1.8) (layer "B.CrtYd") (width 0.05) (tstamp 475ed8b3-90bf-48cd-bce5-d8f48b689541))
    (fp_line (start -10.55 -9.4) (end -10.55 1.8) (layer "B.CrtYd") (width 0.05) (tstamp fc83cd71-1198-4019-87a1-dc154bceead3))
    (fp_line (start -4.04 0.32) (end -10.04 0.32) (layer "B.Fab") (width 0.1) (tstamp 051b8cb0-ae77-4e09-98a7-bf2103319e66))
    (fp_line (start 0.32 -5.4) (end -1.5 -5.4) (layer "B.Fab") (width 0.1) (tstamp 083becc8-e25d-4206-9636-55457650bbe3))
    (fp_line (start -10.04 -2.22) (end -10.04 -2.86) (layer "B.Fab") (width 0.1) (tstamp 0d993e48-cea3-4104-9c5a-d8f97b64a3ac))
    (fp_line (start -10.04 -7.3) (end -10.04 -7.94) (layer "B.Fab") (width 0.1) (tstamp 123968c6-74e7-4754-8c36-08ea08e42555))
    (fp_line (start -4.04 -4.76) (end -10.04 -4.76) (layer "B.Fab") (width 0.1) (tstamp 1c9f6fea-1796-4a2d-80b3-ae22ce51c8f5))
    (fp_line (start 0.32 -2.22) (end 0.32 -2.86) (layer "B.Fab") (width 0.1) (tstamp 20901d7e-a300-4069-8967-a6a7e97a68bc))
    (fp_line (start 0.32 -4.76) (end 0.32 -5.4) (layer "B.Fab") (width 0.1) (tstamp 35c09d1f-2914-4d1e-a002-df30af772f3b))
    (fp_line (start 0.32 -0.32) (end -1.5 -0.32) (layer "B.Fab") (width 0.1) (tstamp 3e3d55c8-e0ea-48fb-8421-a84b7cb7055b))
    (fp_line (start 0.32 -7.94) (end -1.5 -7.94) (layer "B.Fab") (width 0.1) (tstamp 422b10b9-e829-44a2-8808-05edd8cb3050))
    (fp_line (start -4.04 -2.86) (end -10.04 -2.86) (layer "B.Fab") (width 0.1) (tstamp 4a7e3849-3bc9-4bb3-b16a-fab2f5cee0e5))
    (fp_line (start -1.5 -8.89) (end -1.5 0.635) (layer "B.Fab") (width 0.1) (tstamp 5f312b85-6822-40a3-b417-2df49696ca2d))
    (fp_line (start 0.32 -2.22) (end -1.5 -2.22) (layer "B.Fab") (width 0.1) (tstamp 725cdf26-4b92-46db-bca9-10d930002dda))
    (fp_line (start -4.04 -8.89) (end -1.5 -8.89) (layer "B.Fab") (width 0.1) (tstamp 79451892-db6b-4999-916d-6392174ee493))
    (fp_line (start 0.32 -4.76) (end -1.5 -4.76) (layer "B.Fab") (width 0.1) (tstamp 7acd513a-187b-4936-9f93-2e521ce33ad5))
    (fp_line (start -4.04 -7.3) (end -10.04 -7.3) (layer "B.Fab") (width 0.1) (tstamp 86ad0555-08b3-4dde-9a3e-c1e5e29b6615))
    (fp_line (start -4.04 -5.4) (end -10.04 -5.4) (layer "B.Fab") (width 0.1) (tstamp 888fd7cb-2fc6-480c-bcfa-0b71303087d3))
    (fp_line (start 0.32 0.32) (end -1.5 0.32) (layer "B.Fab") (width 0.1) (tstamp 8e295ed4-82cb-4d9f-8888-7ad2dd4d5129))
    (fp_line (start -10.04 -4.76) (end -10.04 -5.4) (layer "B.Fab") (width 0.1) (tstamp 974c48bf-534e-4335-98e1-b0426c783e99))
    (fp_line (start 0.32 -2.86) (end -1.5 -2.86) (layer "B.Fab") (width 0.1) (tstamp 99186658-0361-40ba-ae93-62f23c5622e6))
    (fp_line (start 0.32 -7.3) (end 0.32 -7.94) (layer "B.Fab") (width 0.1) (tstamp a92f3b72-ed6d-4d99-9da6-35771bec3c77))
    (fp_line (start -4.04 1.27) (end -4.04 -8.89) (layer "B.Fab") (width 0.1) (tstamp aa1c6f47-cbd4-4cbd-8265-e5ac08b7ffc8))
    (fp_line (start -2.135 1.27) (end -4.04 1.27) (layer "B.Fab") (width 0.1) (tstamp b12e5309-5d01-40ef-a9c3-8453e00a555e))
    (fp_line (start -1.5 0.635) (end -2.135 1.27) (layer "B.Fab") (width 0.1) (tstamp be6b17f9-34f5-44e9-a4c7-725d2e274a9d))
    (fp_line (start 0.32 -7.3) (end -1.5 -7.3) (layer "B.Fab") (width 0.1) (tstamp cf21dfe3-ab4f-4ad9-b7cf-dc892d833b13))
    (fp_line (start -4.04 -0.32) (end -10.04 -0.32) (layer "B.Fab") (width 0.1) (tstamp e2b24e25-1a0d-434a-876b-c595b47d80d2))
    (fp_line (start -4.04 -2.22) (end -10.04 -2.22) (layer "B.Fab") (width 0.1) (tstamp ee29d712-3378-4507-a00b-003526b29bb1))
    (fp_line (start -4.04 -7.94) (end -10.04 -7.94) (layer "B.Fab") (width 0.1) (tstamp f28e56e7-283b-4b9a-ae27-95e89770fbf8))
    (fp_line (start 0.32 0.32) (end 0.32 -0.32) (layer "B.Fab") (width 0.1) (tstamp f56d244f-1fa4-4475-ac1d-f41eed31a48b))
    (fp_line (start -10.04 0.32) (end -10.04 -0.32) (layer "B.Fab") (width 0.1) (tstamp fad4c712-0a2e-465d-a9f8-83d26bd66e37))
    (pad "1" thru_hole rect locked (at 0 0 180) (size 1.7 1.7) (drill 1) (layers *.Cu *.Mask) (remove_unused_layers) (keep_end_layers)
      (net 1 "Net-(J1-Pad1)") (pinfunction "Pin_1") (pintype "passive") (tstamp 14094ad2-b562-4efa-8c6f-51d7a3134345))
    (pad "2" thru_hole oval locked (at 0 -2.54 180) (size 1.7 1.7) (drill 1) (layers *.Cu *.Mask) (remove_unused_layers) (keep_end_layers)
      (net 2 "Net-(J1-Pad2)") (pinfunction "Pin_2") (pintype "passive") (tstamp cbebc05a-c4dd-4baf-8c08-196e84e08b27))
    (pad "3" thru_hole oval locked (at 0 -5.08 180) (size 1.7 1.7) (drill 1) (layers *.Cu *.Mask) (remove_unused_layers) (keep_end_layers)
      (net 3 "Net-(J1-Pad3)") (pinfunction "Pin_3") (pintype "passive") (tstamp f7447e92-4293-41c4-be3f-69b30aad1f17))
    (pad "4" thru_hole oval locked (at 0 -7.62 180) (size 1.7 1.7) (drill 1) (layers *.Cu *.Mask) (remove_unused_layers) (keep_end_layers)
      (net 4 "Net-(J1-Pad4)") (pinfunction "Pin_4") (pintype "passive") (tstamp 637f12be-fa48-4ce4-96b2-04c21a8795c8))
    (model "${KISYS3DMOD}/Connector_PinHeader_2.54mm.3dshapes/PinHeader_1x04_P2.54mm_Horizontal.wrl" hide
      (offset (xyz 0 0 0))
      (scale (xyz 1 1 1))
      (rotate (xyz 0 0 180))
    )
    (model "${KICAD6_3DMODEL_DIR}/Connector_Berg.3dshapes/small 4p -(M)-R.STEP" hide
      (offset (xyz -3.8 -3.8 -1.5))
      (scale (xyz 1 1 1))
      (rotate (xyz -90 0 90))
    )
    (model "${KIPRJMOD}/libs/MOLEX_1718573004/1718573004.stp"
      (offset (xyz -4.3 -3.8 3.1))
      (scale (xyz 1 1 1))
      (rotate (xyz 180 0 90))
    )
    (model "${KIPRJMOD}/libs/SWR25X-NRTC-S04-RB-BA/SWR25X-NRTC-S04-RB-BA.STEP" hide
      (offset (xyz -8.5 1.95 0))
      (scale (xyz 1 1 1))
      (rotate (xyz 0 0 -90))
    )
  )

  (footprint "Connector_IDC:IDC-Header_2x17_P2.54mm_Horizontal" (layer "B.Cu")
    (tedit 5EAC9A08) (tstamp 9bb9c850-a474-40e7-819b-dde0d864efb4)
    (at 61.0225 84)
    (descr "Through hole IDC box header, 2x17, 2.54mm pitch, DIN 41651 / IEC 60603-13, double rows, https://docs.google.com/spreadsheets/d/16SsEcesNF15N3Lb4niX7dcUr-NY5_MFPQhobNuNppn4/edit#gid=0")
    (tags "Through hole horizontal IDC box header THT 2x17 2.54mm double row")
    (property "Sheetfile" "floppy outlet.kicad_sch")
    (property "Sheetname" "")
    (path "/1ea93dbd-e216-4279-91ab-1f3aeffca428")
    (attr through_hole)
    (fp_text reference "J3" (at 6.215 6.1) (layer "B.SilkS")
      (effects (font (size 1 1) (thickness 0.15)) (justify mirror))
      (tstamp 73fbe87f-3928-49c2-bf87-839d907c6aef)
    )
    (fp_text value "Floppy Data Connector" (at 6.215 -46.74) (layer "B.Fab")
      (effects (font (size 1 1) (thickness 0.15)) (justify mirror))
      (tstamp dd334895-c8ff-4719-bac4-c0b289bb5899)
    )
    (fp_text user "${REFERENCE}" (at 8.83 -20.32 90) (layer "B.Fab")
      (effects (font (size 1 1) (thickness 0.15)) (justify mirror))
      (tstamp 02538207-54a8-4266-8d51-23871852b2ff)
    )
    (fp_line (start 4.27 5.21) (end 13.39 5.21) (layer "B.SilkS") (width 0.12) (tstamp 0f560957-a8c5-442f-b20c-c2d88613742c))
    (fp_line (start -1.35 0) (end -2.35 0.5) (layer "B.SilkS") (width 0.12) (tstamp 17ed3508-fa2e-4593-a799-bfd39a6cc14d))
    (fp_line (start 4.27 -18.27) (end 13.39 -18.27) (layer "B.SilkS") (width 0.12) (tstamp 2a6075ae-c7fa-41db-86b8-3f996740bdc2))
    (fp_line (start 4.27 -45.85) (end 4.27 5.21) (layer "B.SilkS") (width 0.12) (tstamp 4344bc11-e822-474b-8d61-d12211e719b1))
    (fp_line (start -2.35 0.5) (end -2.35 -0.5) (layer "B.SilkS") (width 0.12) (tstamp 5f6afe3e-3cb2-473a-819c-dc94ae52a6be))
    (fp_line (start 13.39 5.21) (end 13.39 -45.85) (layer "B.SilkS") (width 0.12) (tstamp 8f12311d-6f4c-4d28-a5bc-d6cb462bade7))
    (fp_line (start 13.39 -45.85) (end 4.27 -45.85) (layer "B.SilkS") (width 0.12) (tstamp 98970bf0-1168-4b4e-a1c9-3b0c8d7eaacf))
    (fp_line (start -2.35 -0.5) (end -1.35 0) (layer "B.SilkS") (width 0.12) (tstamp c67ad10d-2f75-4ec6-a139-47058f7f06b2))
    (fp_line (start 4.27 -22.37) (end 13.39 -22.37) (layer "B.SilkS") (width 0.12) (tstamp db742b9e-1fed-4e0c-b783-f911ab5116aa))
    (fp_line (start 13.78 -46.24) (end 13.78 5.6) (layer "B.CrtYd") (width 0.05) (tstamp 12c8f4c9-cb79-4390-b96c-a717c693de17))
    (fp_line (start -1.35 5.6) (end -1.35 -46.24) (layer "B.CrtYd") (width 0.05) (tstamp 12f8e43c-8f83-48d3-a9b5-5f3ebc0b6c43))
    (fp_line (start 13.78 5.6) (end -1.35 5.6) (layer "B.CrtYd") (width 0.05) (tstamp 5f38bdb2-3657-474e-8e86-d6bb0b298110))
    (fp_line (start -1.35 -46.24) (end 13.78 -46.24) (layer "B.CrtYd") (width 0.05) (tstamp eaa0d51a-ee4e-4d3a-a801-bddb7027e94c))
    (fp_line (start 4.38 -22.37) (end 13.28 -22.37) (layer "B.Fab") (width 0.1) (tstamp 015f5586-ba76-4a98-9114-f5cd2c67134d))
    (fp_line (start -0.32 -9.84) (end -0.32 -10.48) (layer "B.Fab") (width 0.1) (tstamp 02f8904b-a7b2-49dd-b392-764e7e29fb51))
    (fp_line (start -0.32 -35.88) (end 4.38 -35.88) (layer "B.Fab") (width 0.1) (tstamp 05d3e08e-e1f9-46cf-93d0-836d1306d03a))
    (fp_line (start -0.32 -33.34) (end 4.38 -33.34) (layer "B.Fab") (width 0.1) (tstamp 0b4c0f05-c855-4742-bad2-dbf645d5842b))
    (fp_line (start 4.38 -22.54) (end -0.32 -22.54) (layer "B.Fab") (width 0.1) (tstamp 18f1018d-5857-4c32-a072-f3de80352f74))
    (fp_line (start 4.38 -35.24) (end -0.32 -35.24) (layer "B.Fab") (width 0.1) (tstamp 1c052668-6749-425a-9a77-35f046c8aa39))
    (fp_line (start -0.32 -7.94) (end 4.38 -7.94) (layer "B.Fab") (width 0.1) (tstamp 21492bcd-343a-4b2b-b55a-b4586c11bdeb))
    (fp_line (start -0.32 -17.46) (end -0.32 -18.1) (layer "B.Fab") (width 0.1) (tstamp 2518d4ea-25cc-4e57-a0d6-8482034e7318))
    (fp_line (start 4.38 -25.08) (end -0.32 -25.08) (layer "B.Fab") (width 0.1) (tstamp 282c8e53-3acc-42f0-a92a-6aa976b97a93))
    (fp_line (start 4.38 -40.32) (end -0.32 -40.32) (layer "B.Fab") (width 0.1) (tstamp 2f424da3-8fae-4941-bc6d-20044787372f))
    (fp_line (start 5.38 5.1) (end 13.28 5.1) (layer "B.Fab") (width 0.1) (tstamp 3bca658b-a598-4669-a7cb-3f9b5f47bb5a))
    (fp_line (start 4.38 -4.76) (end -0.32 -4.76) (layer "B.Fab") (width 0.1) (tstamp 3d552623-2969-4b15-8623-368144f225e9))
    (fp_line (start -0.32 -20) (end -0.32 -20.64) (layer "B.Fab") (width 0.1) (tstamp 41485de5-6ed3-4c83-b69e-ef83ae18093c))
    (fp_line (start -0.32 -7.3) (end -0.32 -7.94) (layer "B.Fab") (width 0.1) (tstamp 42d3f9d6-2a47-41a8-b942-295fcb83bcd8))
    (fp_line (start 4.38 4.1) (end 5.38 5.1) (layer "B.Fab") (width 0.1) (tstamp 46cbe85d-ff47-428e-b187-4ebd50a66e0c))
    (fp_line (start -0.32 -15.56) (end 4.38 -15.56) (layer "B.Fab") (width 0.1) (tstamp 4fd9bc4f-0ae3-42d4-a1b4-9fb1b2a0a7fd))
    (fp_line (start -0.32 -5.4) (end 4.38 -5.4) (layer "B.Fab") (width 0.1) (tstamp 541721d1-074b-496e-a833-813044b3e8ca))
    (fp_line (start -0.32 -30.16) (end -0.32 -30.8) (layer "B.Fab") (width 0.1) (tstamp 6bd46644-7209-4d4d-acd8-f4c0d045bc61))
    (fp_line (start -0.32 -2.22) (end -0.32 -2.86) (layer "B.Fab") (width 0.1) (tstamp 71af7b65-0e6b-402e-b1a4-b66be507b4dc))
    (fp_line (start -0.32 -25.72) (end 4.38 -25.72) (layer "B.Fab") (width 0.1) (tstamp 799e761c-1426-40e9-a069-1f4cb353bfaa))
    (fp_line (start 13.28 5.1) (end 13.28 -45.74) (layer "B.Fab") (width 0.1) (tstamp 7bea05d4-1dec-4cd6-aa53-302dde803254))
    (fp_line (start -0.32 -14.92) (end -0.32 -15.56) (layer "B.Fab") (width 0.1) (tstamp 83c5181e-f5ee-453c-ae5c-d7256ba8837d))
    (fp_line (start -0.32 -25.08) (end -0.32 -25.72) (layer "B.Fab") (width 0.1) (tstamp 86e98417-f5e4-48ba-8147-ef66cc03dde6))
    (fp_line (start 4.38 -7.3) (end -0.32 -7.3) (layer "B.Fab") (width 0.1) (tstamp 8aeae536-fd36-430e-be47-1a856eced2fc))
    (fp_line (start -0.32 -0.32) (end 4.38 -0.32) (layer "B.Fab") (width 0.1) (tstamp 8bd46048-cab7-4adf-af9a-bc2710c1894c))
    (fp_line (start 4.38 -18.27) (end 13.28 -18.27) (layer "B.Fab") (width 0.1) (tstamp 92848721-49b5-4e4c-b042-6fd51e1d562f))
    (fp_line (start -0.32 -35.24) (end -0.32 -35.88) (layer "B.Fab") (width 0.1) (tstamp 96315415-cfed-47d2-b3dd-d782358bd0df))
    (fp_line (start -0.32 -12.38) (end -0.32 -13.02) (layer "B.Fab") (width 0.1) (tstamp 992a2b00-5e28-4edd-88b5-994891512d8d))
    (fp_line (start 4.38 -17.46) (end -0.32 -17.46) (layer "B.Fab") (width 0.1) (tstamp 99e6b8eb-b08e-4d42-84dd-8b7f6765b7b7))
    (fp_line (start -0.32 -30.8) (end 4.38 -30.8) (layer "B.Fab") (width 0.1) (tstamp 9db16341-dac0-4aab-9c62-7d88c111c1ce))
    (fp_line (start -0.32 -27.62) (end -0.32 -28.26) (layer "B.Fab") (width 0.1) (tstamp aa047297-22f8-4de0-a969-0b3451b8e164))
    (fp_line (start -0.32 -18.1) (end 4.38 -18.1) (layer "B.Fab") (width 0.1) (tstamp ab8b0540-9c9f-4195-88f5-7bed0b0a8ed6))
    (fp_line (start -0.32 -32.7) (end -0.32 -33.34) (layer "B.Fab") (width 0.1) (tstamp b0b4c3cb-e7ea-49c0-8162-be3bbab3e4ec))
    (fp_line (start 4.38 -12.38) (end -0.32 -12.38) (layer "B.Fab") (width 0.1) (tstamp b794d099-f823-4d35-9755-ca1c45247ee9))
    (fp_line (start 4.38 -30.16) (end -0.32 -30.16) (layer "B.Fab") (width 0.1) (tstamp b7aa0362-7c9e-4a42-b191-ab15a38bf3c5))
    (fp_line (start 4.38 -45.74) (end 4.38 4.1) (layer "B.Fab") (width 0.1) (tstamp b7d06af4-a5b1-447f-9b1a-8b44eb1cc204))
    (fp_line (start -0.32 0.32) (end -0.32 -0.32) (layer "B.Fab") (width 0.1) (tstamp bc3b3f93-69e0-44a5-b919-319b81d13095))
    (fp_line (start -0.32 -2.86) (end 4.38 -2.86) (layer "B.Fab") (width 0.1) (tstamp bef2abc2-bf3e-4a72-ad03-f8da3cd893cb))
    (fp_line (start 4.38 -27.62) (end -0.32 -27.62) (layer "B.Fab") (width 0.1) (tstamp befdfbe5-f3e5-423b-a34e-7bba3f218536))
    (fp_line (start 4.38 -9.84) (end -0.32 -9.84) (layer "B.Fab") (width 0.1) (tstamp c07eebcc-30d2-439d-8030-faea6ade4486))
    (fp_line (start 4.38 -32.7) (end -0.32 -32.7) (layer "B.Fab") (width 0.1) (tstamp ca5b6af8-ca05-4338-b852-b51f2b49b1db))
    (fp_line (start 13.28 -45.74) (end 4.38 -45.74) (layer "B.Fab") (width 0.1) (tstamp d05faa1f-5f69-41bf-86d3-2cd224432e1b))
    (fp_line (start -0.32 -4.76) (end -0.32 -5.4) (layer "B.Fab") (width 0.1) (tstamp d72c89a6-7578-4468-964e-2a845431195f))
    (fp_line (start -0.32 -22.54) (end -0.32 -23.18) (layer "B.Fab") (width 0.1) (tstamp db1ed10a-ef86-43bf-93dc-9be76327f6d2))
    (fp_line (start -0.32 -37.78) (end -0.32 -38.42) (layer "B.Fab") (width 0.1) (tstamp db851147-6a1e-4d19-898c-0ba71182359b))
    (fp_line (start -0.32 -40.96) (end 4.38 -40.96) (layer "B.Fab") (width 0.1) (tstamp dd1edfbb-5fb6-42cd-b740-fd54ab3ef1f1))
    (fp_line (start -0.32 -28.26) (end 4.38 -28.26) (layer "B.Fab") (width 0.1) (tstamp de370984-7922-4327-a0ba-7cd613995df4))
    (fp_line (start -0.32 -10.48) (end 4.38 -10.48) (layer "B.Fab") (width 0.1) (tstamp df3dc9a2-ba40-4c3a-87fe-61cc8e23d71b))
    (fp_line (start -0.32 -40.32) (end -0.32 -40.96) (layer "B.Fab") (width 0.1) (tstamp e65bab67-68b7-4b22-a939-6f2c05164d2a))
    (fp_line (start 4.38 -20) (end -0.32 -20) (layer "B.Fab") (width 0.1) (tstamp e69c64f9-717d-4a97-b3df-80325ec2fa63))
    (fp_line (start 4.38 -2.22) (end -0.32 -2.22) (layer "B.Fab") (width 0.1) (tstamp e70d061b-28f0-4421-ad15-0598604086e8))
    (fp_line (start -0.32 -38.42) (end 4.38 -38.42) (layer "B.Fab") (width 0.1) (tstamp e79c8e11-ed47-4701-ae80-a54cdb6682a5))
    (fp_line (start -0.32 -23.18) (end 4.38 -23.18) (layer "B.Fab") (width 0.1) (tstamp e87a6f80-914f-4f62-9c9f-9ba62a88ee3d))
    (fp_line (start 4.38 0.32) (end -0.32 0.32) (layer "B.Fab") (width 0.1) (tstamp ea2ea877-1ce1-4cd6-ad19-1da87f51601d))
    (fp_line (start -0.32 -20.64) (end 4.38 -20.64) (layer "B.Fab") (width 0.1) (tstamp eb473bfd-fc2d-4cf0-8714-6b7dd95b0a03))
    (fp_line (start 4.38 -14.92) (end -0.32 -14.92) (layer "B.Fab") (width 0.1) (tstamp f699494a-77d6-4c73-bd50-29c1c1c5b879))
    (fp_line (start -0.32 -13.02) (end 4.38 -13.02) (layer "B.Fab") (width 0.1) (tstamp fa20e708-ec85-4e0b-8402-f74a2724f920))
    (fp_line (start 4.38 -37.78) (end -0.32 -37.78) (layer "B.Fab") (width 0.1) (tstamp fb35e3b1-aff6-41a7-9cf0-52694b95edeb))
    (pad "1" thru_hole circle (at 0 0) (size 1.7 1.7) (drill 1) (layers *.Cu "F.Mask") (remove_unused_layers) (keep_end_layers)
      (net 36 "Net-(J3-Pad1)") (pinfunction "Pin_1") (pintype "passive") (tstamp 5ff19d63-2cb4-438b-93c4-e66d37a05329))
    (pad "2" thru_hole circle (at 2.54 0) (size 1.7 1.7) (drill 1) (layers *.Cu *.Mask) (remove_unused_layers) (keep_end_layers)
      (net 25 "Net-(J3-Pad2)") (pinfunction "Pin_2") (pintype "passive") (tstamp fa00d3f4-bb71-4b1d-aa40-ae9267e2c41f))
    (pad "3" thru_hole circle (at 0 -2.54) (size 1.7 1.7) (drill 1) (layers *.Cu "F.Mask") (remove_unused_layers) (keep_end_layers)
      (net 14 "Net-(J3-Pad3)") (pinfunction "Pin_3") (pintype "passive") (tstamp 616287d9-a51f-498c-8b91-be46a0aa3a7f))
    (pad "4" thru_hole circle (at 2.54 -2.54) (size 1.7 1.7) (drill 1) (layers *.Cu *.Mask) (remove_unused_layers) (keep_end_layers)
      (net 8 "Net-(J3-Pad4)") (pinfunction "Pin_4") (pintype "passive") (tstamp a599509f-fbb9-4db4-9adf-9e96bab1138d))
    (pad "5" thru_hole circle (at 0 -5.08) (size 1.7 1.7) (drill 1) (layers *.Cu "F.Mask") (remove_unused_layers) (keep_end_layers)
      (net 38 "Net-(J3-Pad5)") (pinfunction "Pin_5") (pintype "passive") (tstamp 8bdea5f6-7a53-427a-92b8-fd15994c2e8c))
    (pad "6" thru_hole circle (at 2.54 -5.08) (size 1.7 1.7) (drill 1) (layers *.Cu *.Mask) (remove_unused_layers) (keep_end_layers)
      (net 7 "Net-(J3-Pad6)") (pinfunction "Pin_6") (pintype "passive") (tstamp 1cb22080-0f59-4c18-a6e6-8685ef44ec53))
    (pad "7" thru_hole circle (at 0 -7.62) (size 1.7 1.7) (drill 1) (layers *.Cu "F.Mask") (remove_unused_layers) (keep_end_layers)
      (net 6 "Net-(J3-Pad7)") (pinfunction "Pin_7") (pintype "passive") (tstamp 701e1517-e8cf-46f4-b538-98e721c97380))
    (pad "8" thru_hole circle (at 2.54 -7.62) (size 1.7 1.7) (drill 1) (layers *.Cu *.Mask) (remove_unused_layers) (keep_end_layers)
      (net 5 "Net-(J3-Pad8)") (pinfunction "Pin_8") (pintype "passive") (tstamp 235067e2-1686-40fe-a9a0-61704311b2b1))
    (pad "9" thru_hole circle (at 0 -10.16) (size 1.7 1.7) (drill 1) (layers *.Cu "F.Mask") (remove_unused_layers) (keep_end_layers)
      (net 37 "Net-(J3-Pad9)") (pinfunction "Pin_9") (pintype "passive") (tstamp 31f91ec8-56e4-4e08-9ccd-012652772211))
    (pad "10" thru_hole circle (at 2.54 -10.16) (size 1.7 1.7) (drill 1) (layers *.Cu *.Mask) (remove_unused_layers) (keep_end_layers)
      (net 35 "Net-(J3-Pad10)") (pinfunction "Pin_10") (pintype "passive") (tstamp be41ac9e-b8ba-4089-983b-b84269707f1c))
    (pad "11" thru_hole circle (at 0 -12.7) (size 1.7 1.7) (drill 1) (layers *.Cu "F.Mask") (remove_unused_layers) (keep_end_layers)
      (net 34 "Net-(J3-Pad11)") (pinfunction "Pin_11") (pintype "passive") (tstamp 98861672-254d-432b-8e5a-10d885a5ffdc))
    (pad "12" thru_hole circle (at 2.54 -12.7) (size 1.7 1.7) (drill 1) (layers *.Cu *.Mask) (remove_unused_layers) (keep_end_layers)
      (net 33 "Net-(J3-Pad12)") (pinfunction "Pin_12") (pintype "passive") (tstamp 5e7c3a32-8dda-4e6a-9838-c94d1f165575))
    (pad "13" thru_hole circle (at 0 -15.24) (size 1.7 1.7) (drill 1) (layers *.Cu "F.Mask") (remove_unused_layers) (keep_end_layers)
      (net 32 "Net-(J3-Pad13)") (pinfunction "Pin_13") (pintype "passive") (tstamp 5f31b97b-d794-46d6-bbd9-7a5638bcf704))
    (pad "14" thru_hole circle (at 2.54 -15.24) (size 1.7 1.7) (drill 1) (layers *.Cu *.Mask) (remove_unused_layers) (keep_end_layers)
      (net 31 "Net-(J3-Pad14)") (pinfunction "Pin_14") (pintype "passive") (tstamp 3c9169cc-3a77-4ae0-8afc-cbfc472a28c5))
    (pad "15" thru_hole circle (at 0 -17.78) (size 1.7 1.7) (drill 1) (layers *.Cu "F.Mask") (remove_unused_layers) (keep_end_layers)
      (net 30 "Net-(J3-Pad15)") (pinfunction "Pin_15") (pintype "passive") (tstamp 3e57b728-64e6-4470-8f27-a43c0dd85050))
    (pad "16" thru_hole circle (at 2.54 -17.78) (size 1.7 1.7) (drill 1) (layers *.Cu *.Mask) (remove_unused_layers) (keep_end_layers)
      (net 29 "Net-(J3-Pad16)") (pinfunction "Pin_16") (pintype "passive") (tstamp bac7c5b3-99df-445a-ade9-1e608bbbe27e))
    (pad "17" thru_hole circle (at 0 -20.32) (size 1.7 1.7) (drill 1) (layers *.Cu "F.Mask") (remove_unused_layers) (keep_end_layers)
      (net 28 "Net-(J3-Pad17)") (pinfunction "Pin_17") (pintype "passive") (tstamp 75b944f9-bf25-4dc7-8104-e9f80b4f359b))
    (pad "18" thru_hole circle (at 2.54 -20.32) (size 1.7 1.7) (drill 1) (layers *.Cu *.Mask) (remove_unused_layers) (keep_end_layers)
      (net 27 "Net-(J3-Pad18)") (pinfunction "Pin_18") (pintype "passive") (tstamp 2165c9a4-eb84-4cb6-a870-2fdc39d2511b))
    (pad "19" thru_hole circle (at 0 -22.86) (size 1.7 1.7) (drill 1) (layers *.Cu "F.Mask") (remove_unused_layers) (keep_end_layers)
      (net 26 "Net-(J3-Pad19)") (pinfunction "Pin_19") (pintype "passive") (tstamp 84d4e166-b429-409a-ab37-c6a10fd82ff5))
    (pad "20" thru_hole circle (at 2.54 -22.86) (size 1.7 1.7) (drill 1) (layers *.Cu *.Mask) (remove_unused_layers) (keep_end_layers)
      (net 24 "Net-(J3-Pad20)") (pinfunction "Pin_20") (pintype "passive") (tstamp e87738fc-e372-4c48-9de9-398fd8b4874c))
    (pad "21" thru_hole circle (at 0 -25.4) (size 1.7 1.7) (drill 1) (layers *.Cu "F.Mask") (remove_unused_layers) (keep_end_layers)
      (net 23 "Net-(J3-Pad21)") (pinfunction "Pin_21") (pintype "passive") (tstamp 2de1ffee-2174-41d2-8969-68b8d21e5a7d))
    (pad "22" thru_hole circle (at 2.54 -25.4) (size 1.7 1.7) (drill 1) (layers *.Cu *.Mask) (remove_unused_layers) (keep_end_layers)
      (net 22 "Net-(J3-Pad22)") (pinfunction "Pin_22") (pintype "passive") (tstamp a7f2e97b-29f3-44fd-bf8a-97a3c1528b61))
    (pad "23" thru_hole circle (at 0 -27.94) (size 1.7 1.7) (drill 1) (layers *.Cu "F.Mask") (remove_unused_layers) (keep_end_layers)
      (net 21 "Net-(J3-Pad23)") (pinfunction "Pin_23") (pintype "passive") (tstamp 7f2b3ce3-2f20-426d-b769-e0329b6a8111))
    (pad "24" thru_hole circle (at 2.54 -27.94) (size 1.7 1.7) (drill 1) (layers *.Cu *.Mask) (remove_unused_layers) (keep_end_layers)
      (net 20 "Net-(J3-Pad24)") (pinfunction "Pin_24") (pintype "passive") (tstamp 6cb93665-0bcd-4104-8633-fffd1811eee0))
    (pad "25" thru_hole circle (at 0 -30.48) (size 1.7 1.7) (drill 1) (layers *.Cu "F.Mask") (remove_unused_layers) (keep_end_layers)
      (net 19 "Net-(J3-Pad25)") (pinfunction "Pin_25") (pintype "passive") (tstamp e0830067-5b66-4ce1-b2d1-aaa8af20baf7))
    (pad "26" thru_hole circle (at 2.54 -30.48) (size 1.7 1.7) (drill 1) (layers *.Cu *.Mask) (remove_unused_layers) (keep_end_layers)
      (net 18 "Net-(J3-Pad26)") (pinfunction "Pin_26") (pintype "passive") (tstamp 34c0bee6-7425-4435-8857-d1fe8dfb6d89))
    (pad "27" thru_hole circle (at 0 -33.02) (size 1.7 1.7) (drill 1) (layers *.Cu "F.Mask") (remove_unused_layers) (keep_end_layers)
      (net 17 "Net-(J3-Pad27)") (pinfunction "Pin_27") (pintype "passive") (tstamp 6cb535a7-247d-4f99-997d-c21b160eadfa))
    (pad "28" thru_hole circle (at 2.54 -33.02) (size 1.7 1.7) (drill 1) (layers *.Cu *.Mask) (remove_unused_layers) (keep_end_layers)
      (net 16 "Net-(J3-Pad28)") (pinfunction "Pin_28") (pintype "passive") (tstamp f5c43e09-08d6-4a29-a53a-3b9ea7fb34cd))
    (pad "29" thru_hole circle (at 0 -35.56) (size 1.7 1.7) (drill 1) (layers *.Cu "F.Mask") (remove_unused_layers) (keep_end_layers)
      (net 15 "Net-(J3-Pad29)") (pinfunction "Pin_29") (pintype "passive") (tstamp 7c5f3091-7791-43b3-8d50-43f6a72274c9))
    (pad "30" thru_hole circle (at 2.54 -35.56) (size 1.7 1.7) (drill 1) (layers *.Cu *.Mask) (remove_unused_layers) (keep_end_layers)
      (net 13 "Net-(J3-Pad30)") (pinfunction "Pin_30") (pintype "passive") (tstamp 8ac400bf-c9b3-4af4-b0a7-9aa9ab4ad17e))
    (pad "31" thru_hole circle (at 0 -38.1) (size 1.7 1.7) (drill 1) (layers *.Cu "F.Mask") (remove_unused_layers) (keep_end_layers)
      (net 12 "Net-(J3-Pad31)") (pinfunction "Pin_31") (pintype "passive") (tstamp 97dcf785-3264-40a1-a36e-8842acab24fb))
    (pad "32" thru_hole circle (at 2.54 -38.1) (size 1.7 1.7) (drill 1) (layers *.Cu *.Mask) (remove_unused_layers) (keep_end_layers)
      (net 11 "Net-(J3-Pad32)") (pinfunction "Pin_32") (pintype "passive") (tstamp 363945f6-fbef-42be-99cf-4a8a48434d92))
    (pad "33" thru_hole circle (at 0 -40.64) (size 1.7 1.7) (drill 1) (layers *.Cu "F.Mask") (remove_unused_layers) (keep_end_layers)
      (net 10 "Net-(J3-Pad33)") (pinfunction "Pin_33") (pintype "passive") (tstamp 0cc9bf07-55b9-458f-b8aa-41b2f51fa940))
    (pad "34" thru_hole circle (at 2.54 -40.64) (size 1.7 1.7) (drill 1) (layers *.Cu *.Mask) (remove_unused_layers) (keep_end_layers)
      (net 9 "Net-(J3-Pad34)") (pinfunction "Pin_34") (pintype "passive") (tstamp 241e0c85-4796-48eb-a5a0-1c0f2d6e5910))
    (model "${KICAD6_3DMODEL_DIR}/Connector_IDC.3dshapes/IDC-Header_2x17_P2.54mm_Horizontal.wrl"
      (offset (xyz 0 0 0))
      (scale (xyz 1 1 1))
      (rotate (xyz 0 0 0))
    )
  )

  (gr_line (start 74.83 91.1) (end 43.33 91.1) (layer "B.SilkS") (width 0.2) (tstamp c0aa54ac-a665-4c99-9929-74471cfa8cf8))
  (gr_line (start 43.33 22.3) (end 74.83 22.3) (layer "B.SilkS") (width 0.2) (tstamp ec1be750-f560-4444-9169-c577cc857065))
  (gr_rect (start 43.18 11.8) (end 74.98 101.6) (layer "Edge.Cuts") (width 0.1) (fill none) (tstamp 6db11052-8c61-4da3-aec0-5a01654d4b94))
  (gr_text "<- Inside" (at 43.89 96.5) (layer "F.SilkS") (tstamp 4b406db3-0061-4e61-93a5-63c695491c94)
    (effects (font (size 1 1) (thickness 0.15)) (justify left))
  )
  (gr_text "Acorn A3010 External Floppy Mod\n(c) 2022 Wanja Gayk\n" (at 71.24 63.74 -90) (layer "F.SilkS") (tstamp b1c558ef-a76e-4139-a616-60535190f37e)
    (effects (font (size 1.5 1.5) (thickness 0.3)))
  )
  (gr_text "Outside ->" (at 74.48 96.53) (layer "F.SilkS") (tstamp c5d8fa90-825b-4f61-a298-5e2097f22f5e)
    (effects (font (size 1 1) (thickness 0.15)) (justify right))
  )
  (gr_text "https://bitbucket.org/brixomatic/a3010-external-floppy-mod" (at 67.13 63.74 -90) (layer "F.SilkS") (tstamp c6bba6d7-3631-448e-9df8-b5a9e3238ade)
    (effects (font (size 1.5 1) (thickness 0.25)))
  )
  (dimension (type aligned) (layer "F.Cu") (tstamp 2d1e054a-1434-4d8d-a443-d0c7106ee2f9)
    (pts (xy 43.44 37.76) (xy 43.44 89.6))
    (height 6.66)
    (gr_text "51,8400 mm" (at 34.98 63.68 90) (layer "F.Cu") (tstamp 2d1e054a-1434-4d8d-a443-d0c7106ee2f9)
      (effects (font (size 1.5 1.5) (thickness 0.3)))
    )
    (format (units 3) (units_format 1) (precision 4))
    (style (thickness 0.2) (arrow_length 1.27) (text_position_mode 0) (extension_height 0.58642) (extension_offset 0.5) keep_text_aligned)
  )
  (dimension (type aligned) (layer "F.Cu") (tstamp 94f1eec1-878a-474f-b868-6588e0ccbb9a)
    (pts (xy 43.42 35) (xy 43.42 23.8))
    (height -6.64)
    (gr_text "11,2000 mm" (at 34.98 29.4 90) (layer "F.Cu") (tstamp 94f1eec1-878a-474f-b868-6588e0ccbb9a)
      (effects (font (size 1.5 1.5) (thickness 0.3)))
    )
    (format (units 3) (units_format 1) (precision 4))
    (style (thickness 0.2) (arrow_length 1.27) (text_position_mode 0) (extension_height 0.58642) (extension_offset 0.5) keep_text_aligned)
  )
  (dimension (type aligned) (layer "B.Cu") (tstamp 11fe05c6-8f4f-47f6-a0d1-86ad0c2322e3)
    (pts (xy 43.18 101.6) (xy 43.18 89.6))
    (height -6.025)
    (gr_text "12,0000 mm" (at 35.355 95.6 90) (layer "B.Cu") (tstamp 11fe05c6-8f4f-47f6-a0d1-86ad0c2322e3)
      (effects (font (size 1.5 1.5) (thickness 0.3)))
    )
    (format (units 3) (units_format 1) (precision 4))
    (style (thickness 0.2) (arrow_length 1.27) (text_position_mode 0) (extension_height 0.58642) (extension_offset 0.5) keep_text_aligned)
  )
  (dimension (type aligned) (layer "B.Cu") (tstamp c484c2ab-cf5b-4465-9ac6-328d33cc85ce)
    (pts (xy 75.08 21.73) (xy 74.88 91.74))
    (height -3.890028)
    (gr_text "70,0103 mm" (at 77.070019 56.740971 89.8363216) (layer "B.Cu") (tstamp c484c2ab-cf5b-4465-9ac6-328d33cc85ce)
      (effects (font (size 1.5 1.5) (thickness 0.3)))
    )
    (format (units 3) (units_format 1) (precision 4))
    (style (thickness 0.2) (arrow_length 1.27) (text_position_mode 0) (extension_height 0.58642) (extension_offset 0.5) keep_text_aligned)
  )
  (dimension (type aligned) (layer "B.Cu") (tstamp c81f891f-8a52-4b0c-9519-aa8c4f3f25fc)
    (pts (xy 43.18 11.8) (xy 43.18 23.8))
    (height 12.64)
    (gr_text "12,0000 mm" (at 28.74 17.8 90) (layer "B.Cu") (tstamp c81f891f-8a52-4b0c-9519-aa8c4f3f25fc)
      (effects (font (size 1.5 1.5) (thickness 0.3)))
    )
    (format (units 3) (units_format 1) (precision 4))
    (style (thickness 0.2) (arrow_length 1.27) (text_position_mode 0) (extension_height 0.58642) (extension_offset 0.5) keep_text_aligned)
  )
  (dimension (type aligned) (layer "Margin") (tstamp 51167700-07bc-447a-b2c7-a8ce38a1f8a4)
    (pts (xy 43.44 35.05) (xy 43.44 37.76))
    (height 12.57)
    (gr_text "2,7100 mm" (at 29.07 36.405 90) (layer "Margin") (tstamp 51167700-07bc-447a-b2c7-a8ce38a1f8a4)
      (effects (font (size 1.5 1.5) (thickness 0.3)))
    )
    (format (units 3) (units_format 1) (precision 4))
    (style (thickness 0.2) (arrow_length 1.27) (text_position_mode 0) (extension_height 0.58642) (extension_offset 0.5) keep_text_aligned)
  )
  (dimension (type aligned) (layer "Margin") (tstamp 6818506f-d134-48b2-a396-779c2f5f5cee)
    (pts (xy 43.18 101.6) (xy 74.98 101.6))
    (height 8.01)
    (gr_text "31,8000 mm" (at 59.08 107.81) (layer "Margin") (tstamp 6818506f-d134-48b2-a396-779c2f5f5cee)
      (effects (font (size 1.5 1.5) (thickness 0.3)))
    )
    (format (units 3) (units_format 1) (precision 4))
    (style (thickness 0.2) (arrow_length 1.27) (text_position_mode 0) (extension_height 0.58642) (extension_offset 0.5) keep_text_aligned)
  )
  (dimension (type aligned) (layer "Margin") (tstamp a0d2b153-d151-4cee-a7a0-66734582c2a6)
    (pts (xy 74.98 11.8) (xy 74.98 101.6))
    (height -7.62)
    (gr_text "89,8000 mm" (at 80.8 56.7 90) (layer "Margin") (tstamp a0d2b153-d151-4cee-a7a0-66734582c2a6)
      (effects (font (size 1.5 1.5) (thickness 0.3)))
    )
    (format (units 3) (units_format 1) (precision 4))
    (style (thickness 0.2) (arrow_length 1.27) (text_position_mode 0) (extension_height 0.58642) (extension_offset 0.5) keep_text_aligned)
  )
  (target plus (at 43.18 101.6) (size 5) (width 0.1) (layer "Edge.Cuts") (tstamp 6a6e5084-8657-4392-8f92-6ec64aeaa7cc))

  (segment (start 56.385 25.57) (end 61.685 25.57) (width 0.25) (layer "F.Cu") (net 1) (tstamp 4055e5f4-1f1b-485e-a721-60e4bbeee179))
  (segment (start 61.685 25.57) (end 61.715 25.6) (width 0.25) (layer "F.Cu") (net 1) (tstamp 62e32cb4-44c0-41a3-be82-a35d773e1fc9))
  (segment (start 56.385 28.11) (end 61.685 28.11) (width 0.25) (layer "F.Cu") (net 2) (tstamp e3e03527-b4ef-4a6d-9810-6899a29631c0))
  (segment (start 61.685 28.11) (end 61.715 28.14) (width 0.25) (layer "F.Cu") (net 2) (tstamp ed1cf8d9-d2b9-425b-9c8e-61a72d6123b9))
  (segment (start 61.685 30.65) (end 61.715 30.68) (width 0.25) (layer "F.Cu") (net 3) (tstamp 3e26f9f7-5fa8-439b-8fc3-296d21a8355e))
  (segment (start 56.385 30.65) (end 61.685 30.65) (width 0.25) (layer "F.Cu") (net 3) (tstamp 40ea8a65-36c1-4f98-a186-29437e82957f))
  (segment (start 61.685 33.19) (end 61.715 33.22) (width 0.25) (layer "F.Cu") (net 4) (tstamp 5398edb7-21ea-47ec-9e9f-c527b2f1e43b))
  (segment (start 56.385 33.19) (end 61.685 33.19) (width 0.25) (layer "F.Cu") (net 4) (tstamp 78609851-4cf5-4a8b-85c2-01f99b2fd68b))
  (segment (start 62.387989 75.205489) (end 63.5625 76.38) (width 0.25) (layer "B.Cu") (net 5) (tstamp 1d0e2839-b726-4c0a-be25-0b854560d444))
  (segment (start 54.68 76.38) (end 55.854511 75.205489) (width 0.25) (layer "B.Cu") (net 5) (tstamp 514ecc23-0675-43eb-a8d8-133ff14e129f))
  (segment (start 55.854511 75.205489) (end 62.387989 75.205489) (width 0.25) (layer "B.Cu") (net 5) (tstamp 73f2b115-e957-473b-b2ea-f06eb783e731))
  (segment (start 57.22 76.38) (end 61.0225 76.38) (width 0.25) (layer "F.Cu") (net 6) (tstamp 09e1c627-8d92-4230-ab37-582919869939))
  (segment (start 62.387989 77.745489) (end 63.5625 78.92) (width 0.25) (layer "B.Cu") (net 7) (tstamp 7dcb9825-3dfd-4756-9ad8-ccd6e2d8aeee))
  (segment (start 54.68 78.92) (end 55.854511 77.745489) (width 0.25) (layer "B.Cu") (net 7) (tstamp 9a0c4d42-9d21-4d2e-a39e-149f668c2db3))
  (segment (start 55.854511 77.745489) (end 62.387989 77.745489) (width 0.25) (layer "B.Cu") (net 7) (tstamp cef49d78-a8d9-4fab-b636-c0845962862e))
  (segment (start 62.387989 80.285489) (end 63.5625 81.46) (width 0.25) (layer "B.Cu") (net 8) (tstamp 7a422b81-d36a-4f4c-8d5a-ca95edda8092))
  (segment (start 54.68 81.46) (end 55.854511 80.285489) (width 0.25) (layer "B.Cu") (net 8) (tstamp 8fa5b6be-50d6-4426-a674-55f4d2c38a08))
  (segment (start 55.854511 80.285489) (end 62.387989 80.285489) (width 0.25) (layer "B.Cu") (net 8) (tstamp f58ac96d-2594-403c-b6c2-3eaa947987f1))
  (segment (start 54.68 43.36) (end 55.854511 42.185489) (width 0.25) (layer "B.Cu") (net 9) (tstamp 05655669-7329-4654-a69c-9ded0d89e398))
  (segment (start 55.854511 42.185489) (end 62.387989 42.185489) (width 0.25) (layer "B.Cu") (net 9) (tstamp 0f27b713-5ee1-4390-8c0e-19af72fc81f0))
  (segment (start 62.387989 42.185489) (end 63.5625 43.36) (width 0.25) (layer "B.Cu") (net 9) (tstamp a9af2e55-b667-4181-9f3a-3f14e463181e))
  (segment (start 57.22 43.36) (end 61.0225 43.36) (width 0.25) (layer "F.Cu") (net 10) (tstamp 0358e75b-4231-4d84-95e9-6a0e2b8ec381))
  (segment (start 54.68 45.9) (end 55.854511 44.725489) (width 0.25) (layer "B.Cu") (net 11) (tstamp 3d80ba82-fcd5-48e4-9c11-fa6cc04cae58))
  (segment (start 62.387989 44.725489) (end 63.5625 45.9) (width 0.25) (layer "B.Cu") (net 11) (tstamp 4d505787-a6d4-4408-b6e7-12c295e0b2c3))
  (segment (start 55.854511 44.725489) (end 62.387989 44.725489) (width 0.25) (layer "B.Cu") (net 11) (tstamp 4f103160-7c62-4241-8ae2-b6dedb27321f))
  (segment (start 57.22 45.9) (end 61.0225 45.9) (width 0.25) (layer "F.Cu") (net 12) (tstamp 861c40c8-a6ea-4d3b-ab83-dc9bcc12f185))
  (segment (start 55.854511 47.265489) (end 62.387989 47.265489) (width 0.25) (layer "B.Cu") (net 13) (tstamp 7133b922-d879-4699-b7a9-9756e66c1d3b))
  (segment (start 62.387989 47.265489) (end 63.5625 48.44) (width 0.25) (layer "B.Cu") (net 13) (tstamp 7f6d4dae-8da0-4354-a922-930d6dbd668e))
  (segment (start 54.68 48.44) (end 55.854511 47.265489) (width 0.25) (layer "B.Cu") (net 13) (tstamp a1f189f3-41f2-4763-af56-5dffc5e63556))
  (segment (start 57.22 81.46) (end 61.0225 81.46) (width 0.25) (layer "F.Cu") (net 14) (tstamp 30bc086f-fa56-4813-927c-466603efe393))
  (segment (start 57.22 48.44) (end 61.0225 48.44) (width 0.25) (layer "F.Cu") (net 15) (tstamp 19027314-cf59-41b9-8ef3-002c52ad9949))
  (segment (start 62.387989 49.805489) (end 63.5625 50.98) (width 0.25) (layer "B.Cu") (net 16) (tstamp 16440750-6e76-41db-b35f-b4fd1c8edd95))
  (segment (start 55.854511 49.805489) (end 62.387989 49.805489) (width 0.25) (layer "B.Cu") (net 16) (tstamp 3cf63381-e012-492d-bc8f-e592e7b70ddc))
  (segment (start 54.68 50.98) (end 55.854511 49.805489) (width 0.25) (layer "B.Cu") (net 16) (tstamp cdc627d3-1c21-4b4f-abe5-bc8c98a2454a))
  (segment (start 57.22 50.98) (end 61.0225 50.98) (width 0.25) (layer "F.Cu") (net 17) (tstamp 24cff08b-31a5-4ec8-8a81-4af9a43618e0))
  (segment (start 55.854511 52.345489) (end 62.387989 52.345489) (width 0.25) (layer "B.Cu") (net 18) (tstamp 2ab6e383-d6b5-4a03-abb5-3a30d8b300dc))
  (segment (start 62.387989 52.345489) (end 63.5625 53.52) (width 0.25) (layer "B.Cu") (net 18) (tstamp e02a57b1-3b97-49de-b0e0-9ee5476a1589))
  (segment (start 54.68 53.52) (end 55.854511 52.345489) (width 0.25) (layer "B.Cu") (net 18) (tstamp e34bae4a-a65d-415d-bc7e-cdb1e34c7842))
  (segment (start 57.22 53.52) (end 61.0225 53.52) (width 0.25) (layer "F.Cu") (net 19) (tstamp cdaace0f-d129-4957-b637-b35b64fa296d))
  (segment (start 62.387989 54.885489) (end 63.5625 56.06) (width 0.25) (layer "B.Cu") (net 20) (tstamp 3233b95b-f686-4b83-a858-8125567043d5))
  (segment (start 55.854511 54.885489) (end 62.387989 54.885489) (width 0.25) (layer "B.Cu") (net 20) (tstamp c7fd69e5-4044-47fe-a7e7-2b3fe755e4a2))
  (segment (start 54.68 56.06) (end 55.854511 54.885489) (width 0.25) (layer "B.Cu") (net 20) (tstamp cdb2a6dd-f46f-4baf-bd34-e44eba1ef929))
  (segment (start 57.22 56.06) (end 61.0225 56.06) (width 0.25) (layer "F.Cu") (net 21) (tstamp 5da17440-7da4-4750-bf13-95b4435d4f35))
  (segment (start 62.387989 57.425489) (end 63.5625 58.6) (width 0.25) (layer "B.Cu") (net 22) (tstamp 2f048287-0d98-4cc5-8799-0a0531a09f1b))
  (segment (start 54.68 58.6) (end 55.854511 57.425489) (width 0.25) (layer "B.Cu") (net 22) (tstamp 457799b7-f935-49e1-a41a-bb506d732ff8))
  (segment (start 55.854511 57.425489) (end 62.387989 57.425489) (width 0.25) (layer "B.Cu") (net 22) (tstamp 85b7caab-06f0-421d-8662-c62cbfd90f2c))
  (segment (start 57.22 58.6) (end 61.0225 58.6) (width 0.25) (layer "F.Cu") (net 23) (tstamp d2140b97-3ed8-4348-b277-02841d1baecc))
  (segment (start 55.854511 59.965489) (end 62.387989 59.965489) (width 0.25) (layer "B.Cu") (net 24) (tstamp 258e05bc-5494-41b0-ba98-0ec6bcccc114))
  (segment (start 54.68 61.14) (end 55.854511 59.965489) (width 0.25) (layer "B.Cu") (net 24) (tstamp abcbb755-c497-4569-ae92-35805c05151a))
  (segment (start 62.387989 59.965489) (end 63.5625 61.14) (width 0.25) (layer "B.Cu") (net 24) (tstamp af499b18-9a2c-4b35-83f8-d6915e31edb6))
  (segment (start 54.68 84) (end 55.85452 82.82548) (width 0.25) (layer "B.Cu") (net 25) (tstamp 22915976-8290-49a1-85a5-8f52d06b4686))
  (segment (start 62.38798 82.82548) (end 63.5625 84) (width 0.25) (layer "B.Cu") (net 25) (tstamp 4ed79818-9e82-4e17-bf34-87f095898fa8))
  (segment (start 55.85452 82.82548) (end 62.38798 82.82548) (width 0.25) (layer "B.Cu") (net 25) (tstamp 53ef4901-ee7d-4732-b99f-10e149c24a56))
  (segment (start 57.22 61.14) (end 61.0225 61.14) (width 0.25) (layer "F.Cu") (net 26) (tstamp de484f5c-69e1-41c3-a744-b5486d367e69))
  (segment (start 54.68 63.68) (end 55.854511 62.505489) (width 0.25) (layer "B.Cu") (net 27) (tstamp 19ae32b3-3026-4b7d-82dd-99ef27b09396))
  (segment (start 55.854511 62.505489) (end 62.387989 62.505489) (width 0.25) (layer "B.Cu") (net 27) (tstamp 8c56c79c-7af4-40fc-8d6c-2391d30538c4))
  (segment (start 62.387989 62.505489) (end 63.5625 63.68) (width 0.25) (layer "B.Cu") (net 27) (tstamp e780e7e6-94bb-437b-85c8-a09375b1d1ba))
  (segment (start 57.22 63.68) (end 61.0225 63.68) (width 0.25) (layer "F.Cu") (net 28) (tstamp dae3c56f-bfb3-47af-9384-1fa1a6fce4ea))
  (segment (start 55.854511 65.045489) (end 62.387989 65.045489) (width 0.25) (layer "B.Cu") (net 29) (tstamp 2f5fdd85-409f-42d5-9313-c2470abe12d0))
  (segment (start 62.387989 65.045489) (end 63.5625 66.22) (width 0.25) (layer "B.Cu") (net 29) (tstamp bb6d71a0-b938-4304-97fa-7f470ca4197e))
  (segment (start 54.68 66.22) (end 55.854511 65.045489) (width 0.25) (layer "B.Cu") (net 29) (tstamp f9e18fc6-1ab0-4118-b12d-9922d1b94f80))
  (segment (start 57.22 66.22) (end 61.0225 66.22) (width 0.25) (layer "F.Cu") (net 30) (tstamp ca26901c-11f0-48e3-bca9-1c204b71fdb3))
  (segment (start 54.68 68.76) (end 55.854511 67.585489) (width 0.25) (layer "B.Cu") (net 31) (tstamp 9bb6e3c7-90ab-4fb1-a6fc-79718b677407))
  (segment (start 62.387989 67.585489) (end 63.5625 68.76) (width 0.25) (layer "B.Cu") (net 31) (tstamp a16bd4a0-3526-4583-8b91-590178904dd3))
  (segment (start 55.854511 67.585489) (end 62.387989 67.585489) (width 0.25) (layer "B.Cu") (net 31) (tstamp ba1b3d0c-4367-4082-924d-e49de57902f2))
  (segment (start 57.22 68.76) (end 61.0225 68.76) (width 0.25) (layer "F.Cu") (net 32) (tstamp 9fa425a7-3ba9-4f95-b91b-9efd450c687d))
  (segment (start 54.68 71.3) (end 55.854511 70.125489) (width 0.25) (layer "B.Cu") (net 33) (tstamp 4c772e5a-d9cc-47df-abf9-ba2f0704170c))
  (segment (start 62.387989 70.125489) (end 63.5625 71.3) (width 0.25) (layer "B.Cu") (net 33) (tstamp 9541a387-8c05-4fed-8bcd-c328058dd294))
  (segment (start 55.854511 70.125489) (end 62.387989 70.125489) (width 0.25) (layer "B.Cu") (net 33) (tstamp f1e11395-c1df-4c8a-872a-4fa5f10ddc09))
  (segment (start 57.22 71.3) (end 61.0225 71.3) (width 0.25) (layer "F.Cu") (net 34) (tstamp 6deae973-29af-4210-9042-d8b19621508b))
  (segment (start 62.387989 72.665489) (end 63.5625 73.84) (width 0.25) (layer "B.Cu") (net 35) (tstamp c4c7714c-2833-4796-a64e-3123a2efd2b8))
  (segment (start 54.68 73.84) (end 55.854511 72.665489) (width 0.25) (layer "B.Cu") (net 35) (tstamp e31abd27-764d-48a9-8d5f-5743f4dbd4d8))
  (segment (start 55.854511 72.665489) (end 62.387989 72.665489) (width 0.25) (layer "B.Cu") (net 35) (tstamp fa31b13e-35ad-4424-b6a3-4fc004b92eb1))
  (segment (start 57.22 84) (end 61.0225 84) (width 0.25) (layer "F.Cu") (net 36) (tstamp 5c3e32a6-4185-4848-8989-2e9e7ba5e84c))
  (segment (start 57.22 73.84) (end 61.0225 73.84) (width 0.25) (layer "F.Cu") (net 37) (tstamp 2f386031-30d7-49ca-8cb5-6e0bef31c26a))
  (segment (start 57.22 78.92) (end 61.0225 78.92) (width 0.25) (layer "F.Cu") (net 38) (tstamp 37734343-c248-45bc-a2e4-c89af9424033))

)
