G04 #@! TF.GenerationSoftware,KiCad,Pcbnew,(6.0.2)*
G04 #@! TF.CreationDate,2022-03-22T15:19:15+01:00*
G04 #@! TF.ProjectId,floppy outlet,666c6f70-7079-4206-9f75-746c65742e6b,rev?*
G04 #@! TF.SameCoordinates,Original*
G04 #@! TF.FileFunction,Copper,L1,Top*
G04 #@! TF.FilePolarity,Positive*
%FSLAX46Y46*%
G04 Gerber Fmt 4.6, Leading zero omitted, Abs format (unit mm)*
G04 Created by KiCad (PCBNEW (6.0.2)) date 2022-03-22 15:19:15*
%MOMM*%
%LPD*%
G01*
G04 APERTURE LIST*
%ADD10C,0.300000*%
G04 #@! TA.AperFunction,NonConductor*
%ADD11C,0.300000*%
G04 #@! TD*
G04 #@! TA.AperFunction,NonConductor*
%ADD12C,0.200000*%
G04 #@! TD*
G04 #@! TA.AperFunction,ComponentPad*
%ADD13C,1.700000*%
G04 #@! TD*
G04 #@! TA.AperFunction,ComponentPad*
%ADD14R,1.700000X1.700000*%
G04 #@! TD*
G04 #@! TA.AperFunction,ComponentPad*
%ADD15O,1.700000X1.700000*%
G04 #@! TD*
G04 #@! TA.AperFunction,Conductor*
%ADD16C,0.250000*%
G04 #@! TD*
G04 APERTURE END LIST*
D10*
D11*
X34158571Y-69822857D02*
X34158571Y-70537142D01*
X34872857Y-70608571D01*
X34801428Y-70537142D01*
X34730000Y-70394285D01*
X34730000Y-70037142D01*
X34801428Y-69894285D01*
X34872857Y-69822857D01*
X35015714Y-69751428D01*
X35372857Y-69751428D01*
X35515714Y-69822857D01*
X35587142Y-69894285D01*
X35658571Y-70037142D01*
X35658571Y-70394285D01*
X35587142Y-70537142D01*
X35515714Y-70608571D01*
X35658571Y-68322857D02*
X35658571Y-69180000D01*
X35658571Y-68751428D02*
X34158571Y-68751428D01*
X34372857Y-68894285D01*
X34515714Y-69037142D01*
X34587142Y-69180000D01*
X35587142Y-67608571D02*
X35658571Y-67608571D01*
X35801428Y-67680000D01*
X35872857Y-67751428D01*
X34801428Y-66751428D02*
X34730000Y-66894285D01*
X34658571Y-66965714D01*
X34515714Y-67037142D01*
X34444285Y-67037142D01*
X34301428Y-66965714D01*
X34230000Y-66894285D01*
X34158571Y-66751428D01*
X34158571Y-66465714D01*
X34230000Y-66322857D01*
X34301428Y-66251428D01*
X34444285Y-66180000D01*
X34515714Y-66180000D01*
X34658571Y-66251428D01*
X34730000Y-66322857D01*
X34801428Y-66465714D01*
X34801428Y-66751428D01*
X34872857Y-66894285D01*
X34944285Y-66965714D01*
X35087142Y-67037142D01*
X35372857Y-67037142D01*
X35515714Y-66965714D01*
X35587142Y-66894285D01*
X35658571Y-66751428D01*
X35658571Y-66465714D01*
X35587142Y-66322857D01*
X35515714Y-66251428D01*
X35372857Y-66180000D01*
X35087142Y-66180000D01*
X34944285Y-66251428D01*
X34872857Y-66322857D01*
X34801428Y-66465714D01*
X34658571Y-64894285D02*
X35658571Y-64894285D01*
X34087142Y-65251428D02*
X35158571Y-65608571D01*
X35158571Y-64680000D01*
X34158571Y-63822857D02*
X34158571Y-63680000D01*
X34230000Y-63537142D01*
X34301428Y-63465714D01*
X34444285Y-63394285D01*
X34730000Y-63322857D01*
X35087142Y-63322857D01*
X35372857Y-63394285D01*
X35515714Y-63465714D01*
X35587142Y-63537142D01*
X35658571Y-63680000D01*
X35658571Y-63822857D01*
X35587142Y-63965714D01*
X35515714Y-64037142D01*
X35372857Y-64108571D01*
X35087142Y-64180000D01*
X34730000Y-64180000D01*
X34444285Y-64108571D01*
X34301428Y-64037142D01*
X34230000Y-63965714D01*
X34158571Y-63822857D01*
X34158571Y-62394285D02*
X34158571Y-62251428D01*
X34230000Y-62108571D01*
X34301428Y-62037142D01*
X34444285Y-61965714D01*
X34730000Y-61894285D01*
X35087142Y-61894285D01*
X35372857Y-61965714D01*
X35515714Y-62037142D01*
X35587142Y-62108571D01*
X35658571Y-62251428D01*
X35658571Y-62394285D01*
X35587142Y-62537142D01*
X35515714Y-62608571D01*
X35372857Y-62680000D01*
X35087142Y-62751428D01*
X34730000Y-62751428D01*
X34444285Y-62680000D01*
X34301428Y-62608571D01*
X34230000Y-62537142D01*
X34158571Y-62394285D01*
X35658571Y-60108571D02*
X34658571Y-60108571D01*
X34801428Y-60108571D02*
X34730000Y-60037142D01*
X34658571Y-59894285D01*
X34658571Y-59680000D01*
X34730000Y-59537142D01*
X34872857Y-59465714D01*
X35658571Y-59465714D01*
X34872857Y-59465714D02*
X34730000Y-59394285D01*
X34658571Y-59251428D01*
X34658571Y-59037142D01*
X34730000Y-58894285D01*
X34872857Y-58822857D01*
X35658571Y-58822857D01*
X35658571Y-58108571D02*
X34658571Y-58108571D01*
X34801428Y-58108571D02*
X34730000Y-58037142D01*
X34658571Y-57894285D01*
X34658571Y-57680000D01*
X34730000Y-57537142D01*
X34872857Y-57465714D01*
X35658571Y-57465714D01*
X34872857Y-57465714D02*
X34730000Y-57394285D01*
X34658571Y-57251428D01*
X34658571Y-57037142D01*
X34730000Y-56894285D01*
X34872857Y-56822857D01*
X35658571Y-56822857D01*
D12*
X42940000Y-37760000D02*
X36193580Y-37760000D01*
X42940000Y-89600000D02*
X36193580Y-89600000D01*
X36780000Y-37760000D02*
X36780000Y-89600000D01*
X36780000Y-37760000D02*
X36780000Y-89600000D01*
X36780000Y-37760000D02*
X36193579Y-38886504D01*
X36780000Y-37760000D02*
X37366421Y-38886504D01*
X36780000Y-89600000D02*
X37366421Y-88473496D01*
X36780000Y-89600000D02*
X36193579Y-88473496D01*
D10*
D11*
X35658571Y-35471428D02*
X35658571Y-36328571D01*
X35658571Y-35900000D02*
X34158571Y-35900000D01*
X34372857Y-36042857D01*
X34515714Y-36185714D01*
X34587142Y-36328571D01*
X35658571Y-34042857D02*
X35658571Y-34900000D01*
X35658571Y-34471428D02*
X34158571Y-34471428D01*
X34372857Y-34614285D01*
X34515714Y-34757142D01*
X34587142Y-34900000D01*
X35587142Y-33328571D02*
X35658571Y-33328571D01*
X35801428Y-33400000D01*
X35872857Y-33471428D01*
X34301428Y-32757142D02*
X34230000Y-32685714D01*
X34158571Y-32542857D01*
X34158571Y-32185714D01*
X34230000Y-32042857D01*
X34301428Y-31971428D01*
X34444285Y-31900000D01*
X34587142Y-31900000D01*
X34801428Y-31971428D01*
X35658571Y-32828571D01*
X35658571Y-31900000D01*
X34158571Y-30971428D02*
X34158571Y-30828571D01*
X34230000Y-30685714D01*
X34301428Y-30614285D01*
X34444285Y-30542857D01*
X34730000Y-30471428D01*
X35087142Y-30471428D01*
X35372857Y-30542857D01*
X35515714Y-30614285D01*
X35587142Y-30685714D01*
X35658571Y-30828571D01*
X35658571Y-30971428D01*
X35587142Y-31114285D01*
X35515714Y-31185714D01*
X35372857Y-31257142D01*
X35087142Y-31328571D01*
X34730000Y-31328571D01*
X34444285Y-31257142D01*
X34301428Y-31185714D01*
X34230000Y-31114285D01*
X34158571Y-30971428D01*
X34158571Y-29542857D02*
X34158571Y-29400000D01*
X34230000Y-29257142D01*
X34301428Y-29185714D01*
X34444285Y-29114285D01*
X34730000Y-29042857D01*
X35087142Y-29042857D01*
X35372857Y-29114285D01*
X35515714Y-29185714D01*
X35587142Y-29257142D01*
X35658571Y-29400000D01*
X35658571Y-29542857D01*
X35587142Y-29685714D01*
X35515714Y-29757142D01*
X35372857Y-29828571D01*
X35087142Y-29900000D01*
X34730000Y-29900000D01*
X34444285Y-29828571D01*
X34301428Y-29757142D01*
X34230000Y-29685714D01*
X34158571Y-29542857D01*
X34158571Y-28114285D02*
X34158571Y-27971428D01*
X34230000Y-27828571D01*
X34301428Y-27757142D01*
X34444285Y-27685714D01*
X34730000Y-27614285D01*
X35087142Y-27614285D01*
X35372857Y-27685714D01*
X35515714Y-27757142D01*
X35587142Y-27828571D01*
X35658571Y-27971428D01*
X35658571Y-28114285D01*
X35587142Y-28257142D01*
X35515714Y-28328571D01*
X35372857Y-28400000D01*
X35087142Y-28471428D01*
X34730000Y-28471428D01*
X34444285Y-28400000D01*
X34301428Y-28328571D01*
X34230000Y-28257142D01*
X34158571Y-28114285D01*
X35658571Y-25828571D02*
X34658571Y-25828571D01*
X34801428Y-25828571D02*
X34730000Y-25757142D01*
X34658571Y-25614285D01*
X34658571Y-25400000D01*
X34730000Y-25257142D01*
X34872857Y-25185714D01*
X35658571Y-25185714D01*
X34872857Y-25185714D02*
X34730000Y-25114285D01*
X34658571Y-24971428D01*
X34658571Y-24757142D01*
X34730000Y-24614285D01*
X34872857Y-24542857D01*
X35658571Y-24542857D01*
X35658571Y-23828571D02*
X34658571Y-23828571D01*
X34801428Y-23828571D02*
X34730000Y-23757142D01*
X34658571Y-23614285D01*
X34658571Y-23400000D01*
X34730000Y-23257142D01*
X34872857Y-23185714D01*
X35658571Y-23185714D01*
X34872857Y-23185714D02*
X34730000Y-23114285D01*
X34658571Y-22971428D01*
X34658571Y-22757142D01*
X34730000Y-22614285D01*
X34872857Y-22542857D01*
X35658571Y-22542857D01*
D12*
X42920000Y-35000000D02*
X36193580Y-35000000D01*
X42920000Y-23800000D02*
X36193580Y-23800000D01*
X36780000Y-35000000D02*
X36780000Y-23800000D01*
X36780000Y-35000000D02*
X36780000Y-23800000D01*
X36780000Y-35000000D02*
X37366421Y-33873496D01*
X36780000Y-35000000D02*
X36193579Y-33873496D01*
X36780000Y-23800000D02*
X36193579Y-24926504D01*
X36780000Y-23800000D02*
X37366421Y-24926504D01*
D13*
X57220000Y-84000000D03*
X54680000Y-84000000D03*
X57220000Y-81460000D03*
X54680000Y-81460000D03*
X57220000Y-78920000D03*
X54680000Y-78920000D03*
X57220000Y-76380000D03*
X54680000Y-76380000D03*
X57220000Y-73840000D03*
X54680000Y-73840000D03*
X57220000Y-71300000D03*
X54680000Y-71300000D03*
X57220000Y-68760000D03*
X54680000Y-68760000D03*
X57220000Y-66220000D03*
X54680000Y-66220000D03*
X57220000Y-63680000D03*
X54680000Y-63680000D03*
X57220000Y-61140000D03*
X54680000Y-61140000D03*
X57220000Y-58600000D03*
X54680000Y-58600000D03*
X57220000Y-56060000D03*
X54680000Y-56060000D03*
X57220000Y-53520000D03*
X54680000Y-53520000D03*
X57220000Y-50980000D03*
X54680000Y-50980000D03*
X57220000Y-48440000D03*
X54680000Y-48440000D03*
X57220000Y-45900000D03*
X54680000Y-45900000D03*
X57220000Y-43360000D03*
X54680000Y-43360000D03*
D14*
X56385000Y-25570000D03*
D15*
X56385000Y-28110000D03*
X56385000Y-30650000D03*
X56385000Y-33190000D03*
D14*
X61715000Y-25600000D03*
D15*
X61715000Y-28140000D03*
X61715000Y-30680000D03*
X61715000Y-33220000D03*
D13*
X61022500Y-84000000D03*
X63562500Y-84000000D03*
X61022500Y-81460000D03*
X63562500Y-81460000D03*
X61022500Y-78920000D03*
X63562500Y-78920000D03*
X61022500Y-76380000D03*
X63562500Y-76380000D03*
X61022500Y-73840000D03*
X63562500Y-73840000D03*
X61022500Y-71300000D03*
X63562500Y-71300000D03*
X61022500Y-68760000D03*
X63562500Y-68760000D03*
X61022500Y-66220000D03*
X63562500Y-66220000D03*
X61022500Y-63680000D03*
X63562500Y-63680000D03*
X61022500Y-61140000D03*
X63562500Y-61140000D03*
X61022500Y-58600000D03*
X63562500Y-58600000D03*
X61022500Y-56060000D03*
X63562500Y-56060000D03*
X61022500Y-53520000D03*
X63562500Y-53520000D03*
X61022500Y-50980000D03*
X63562500Y-50980000D03*
X61022500Y-48440000D03*
X63562500Y-48440000D03*
X61022500Y-45900000D03*
X63562500Y-45900000D03*
X61022500Y-43360000D03*
X63562500Y-43360000D03*
D16*
X56385000Y-25570000D02*
X61685000Y-25570000D01*
X61685000Y-25570000D02*
X61715000Y-25600000D01*
X56385000Y-28110000D02*
X61685000Y-28110000D01*
X61685000Y-28110000D02*
X61715000Y-28140000D01*
X61685000Y-30650000D02*
X61715000Y-30680000D01*
X56385000Y-30650000D02*
X61685000Y-30650000D01*
X61685000Y-33190000D02*
X61715000Y-33220000D01*
X56385000Y-33190000D02*
X61685000Y-33190000D01*
X57220000Y-76380000D02*
X61022500Y-76380000D01*
X57220000Y-43360000D02*
X61022500Y-43360000D01*
X57220000Y-45900000D02*
X61022500Y-45900000D01*
X57220000Y-81460000D02*
X61022500Y-81460000D01*
X57220000Y-48440000D02*
X61022500Y-48440000D01*
X57220000Y-50980000D02*
X61022500Y-50980000D01*
X57220000Y-53520000D02*
X61022500Y-53520000D01*
X57220000Y-56060000D02*
X61022500Y-56060000D01*
X57220000Y-58600000D02*
X61022500Y-58600000D01*
X57220000Y-61140000D02*
X61022500Y-61140000D01*
X57220000Y-63680000D02*
X61022500Y-63680000D01*
X57220000Y-66220000D02*
X61022500Y-66220000D01*
X57220000Y-68760000D02*
X61022500Y-68760000D01*
X57220000Y-71300000D02*
X61022500Y-71300000D01*
X57220000Y-84000000D02*
X61022500Y-84000000D01*
X57220000Y-73840000D02*
X61022500Y-73840000D01*
X57220000Y-78920000D02*
X61022500Y-78920000D01*
M02*
