G04 #@! TF.GenerationSoftware,KiCad,Pcbnew,(6.0.2)*
G04 #@! TF.CreationDate,2022-03-22T15:19:15+01:00*
G04 #@! TF.ProjectId,floppy outlet,666c6f70-7079-4206-9f75-746c65742e6b,rev?*
G04 #@! TF.SameCoordinates,Original*
G04 #@! TF.FileFunction,Copper,L2,Bot*
G04 #@! TF.FilePolarity,Positive*
%FSLAX46Y46*%
G04 Gerber Fmt 4.6, Leading zero omitted, Abs format (unit mm)*
G04 Created by KiCad (PCBNEW (6.0.2)) date 2022-03-22 15:19:15*
%MOMM*%
%LPD*%
G01*
G04 APERTURE LIST*
%ADD10C,0.300000*%
G04 #@! TA.AperFunction,NonConductor*
%ADD11C,0.300000*%
G04 #@! TD*
G04 #@! TA.AperFunction,NonConductor*
%ADD12C,0.200000*%
G04 #@! TD*
G04 #@! TA.AperFunction,ComponentPad*
%ADD13C,1.700000*%
G04 #@! TD*
G04 #@! TA.AperFunction,ComponentPad*
%ADD14R,1.700000X1.700000*%
G04 #@! TD*
G04 #@! TA.AperFunction,ComponentPad*
%ADD15O,1.700000X1.700000*%
G04 #@! TD*
G04 #@! TA.AperFunction,Conductor*
%ADD16C,0.250000*%
G04 #@! TD*
G04 APERTURE END LIST*
D10*
D11*
X36033571Y-101671428D02*
X36033571Y-102528571D01*
X36033571Y-102100000D02*
X34533571Y-102100000D01*
X34747857Y-102242857D01*
X34890714Y-102385714D01*
X34962142Y-102528571D01*
X34676428Y-101100000D02*
X34605000Y-101028571D01*
X34533571Y-100885714D01*
X34533571Y-100528571D01*
X34605000Y-100385714D01*
X34676428Y-100314285D01*
X34819285Y-100242857D01*
X34962142Y-100242857D01*
X35176428Y-100314285D01*
X36033571Y-101171428D01*
X36033571Y-100242857D01*
X35962142Y-99528571D02*
X36033571Y-99528571D01*
X36176428Y-99600000D01*
X36247857Y-99671428D01*
X34533571Y-98600000D02*
X34533571Y-98457142D01*
X34605000Y-98314285D01*
X34676428Y-98242857D01*
X34819285Y-98171428D01*
X35105000Y-98100000D01*
X35462142Y-98100000D01*
X35747857Y-98171428D01*
X35890714Y-98242857D01*
X35962142Y-98314285D01*
X36033571Y-98457142D01*
X36033571Y-98600000D01*
X35962142Y-98742857D01*
X35890714Y-98814285D01*
X35747857Y-98885714D01*
X35462142Y-98957142D01*
X35105000Y-98957142D01*
X34819285Y-98885714D01*
X34676428Y-98814285D01*
X34605000Y-98742857D01*
X34533571Y-98600000D01*
X34533571Y-97171428D02*
X34533571Y-97028571D01*
X34605000Y-96885714D01*
X34676428Y-96814285D01*
X34819285Y-96742857D01*
X35105000Y-96671428D01*
X35462142Y-96671428D01*
X35747857Y-96742857D01*
X35890714Y-96814285D01*
X35962142Y-96885714D01*
X36033571Y-97028571D01*
X36033571Y-97171428D01*
X35962142Y-97314285D01*
X35890714Y-97385714D01*
X35747857Y-97457142D01*
X35462142Y-97528571D01*
X35105000Y-97528571D01*
X34819285Y-97457142D01*
X34676428Y-97385714D01*
X34605000Y-97314285D01*
X34533571Y-97171428D01*
X34533571Y-95742857D02*
X34533571Y-95600000D01*
X34605000Y-95457142D01*
X34676428Y-95385714D01*
X34819285Y-95314285D01*
X35105000Y-95242857D01*
X35462142Y-95242857D01*
X35747857Y-95314285D01*
X35890714Y-95385714D01*
X35962142Y-95457142D01*
X36033571Y-95600000D01*
X36033571Y-95742857D01*
X35962142Y-95885714D01*
X35890714Y-95957142D01*
X35747857Y-96028571D01*
X35462142Y-96100000D01*
X35105000Y-96100000D01*
X34819285Y-96028571D01*
X34676428Y-95957142D01*
X34605000Y-95885714D01*
X34533571Y-95742857D01*
X34533571Y-94314285D02*
X34533571Y-94171428D01*
X34605000Y-94028571D01*
X34676428Y-93957142D01*
X34819285Y-93885714D01*
X35105000Y-93814285D01*
X35462142Y-93814285D01*
X35747857Y-93885714D01*
X35890714Y-93957142D01*
X35962142Y-94028571D01*
X36033571Y-94171428D01*
X36033571Y-94314285D01*
X35962142Y-94457142D01*
X35890714Y-94528571D01*
X35747857Y-94600000D01*
X35462142Y-94671428D01*
X35105000Y-94671428D01*
X34819285Y-94600000D01*
X34676428Y-94528571D01*
X34605000Y-94457142D01*
X34533571Y-94314285D01*
X36033571Y-92028571D02*
X35033571Y-92028571D01*
X35176428Y-92028571D02*
X35105000Y-91957142D01*
X35033571Y-91814285D01*
X35033571Y-91600000D01*
X35105000Y-91457142D01*
X35247857Y-91385714D01*
X36033571Y-91385714D01*
X35247857Y-91385714D02*
X35105000Y-91314285D01*
X35033571Y-91171428D01*
X35033571Y-90957142D01*
X35105000Y-90814285D01*
X35247857Y-90742857D01*
X36033571Y-90742857D01*
X36033571Y-90028571D02*
X35033571Y-90028571D01*
X35176428Y-90028571D02*
X35105000Y-89957142D01*
X35033571Y-89814285D01*
X35033571Y-89600000D01*
X35105000Y-89457142D01*
X35247857Y-89385714D01*
X36033571Y-89385714D01*
X35247857Y-89385714D02*
X35105000Y-89314285D01*
X35033571Y-89171428D01*
X35033571Y-88957142D01*
X35105000Y-88814285D01*
X35247857Y-88742857D01*
X36033571Y-88742857D01*
D12*
X42680000Y-101600000D02*
X36568580Y-101600000D01*
X42680000Y-89600000D02*
X36568580Y-89600000D01*
X37155000Y-101600000D02*
X37155000Y-89600000D01*
X37155000Y-101600000D02*
X37155000Y-89600000D01*
X37155000Y-101600000D02*
X37741421Y-100473496D01*
X37155000Y-101600000D02*
X36568579Y-100473496D01*
X37155000Y-89600000D02*
X36568579Y-90726504D01*
X37155000Y-89600000D02*
X37741421Y-90726504D01*
D10*
D11*
X76228596Y-63738595D02*
X76231453Y-62738599D01*
X77729610Y-63385739D01*
X76233902Y-61881460D02*
X76234310Y-61738604D01*
X76306146Y-61595951D01*
X76377778Y-61524727D01*
X76520839Y-61453707D01*
X76806756Y-61383095D01*
X77163898Y-61384115D01*
X77449407Y-61456359D01*
X77592059Y-61528196D01*
X77663283Y-61599828D01*
X77734304Y-61742889D01*
X77733895Y-61885745D01*
X77662059Y-62028398D01*
X77590427Y-62099622D01*
X77447366Y-62170642D01*
X77161449Y-62241254D01*
X76804308Y-62240234D01*
X76518798Y-62167989D01*
X76376146Y-62096153D01*
X76304922Y-62024521D01*
X76233902Y-61881460D01*
X77665936Y-60671260D02*
X77737364Y-60671464D01*
X77880017Y-60743301D01*
X77951241Y-60814933D01*
X76240023Y-59738612D02*
X76240431Y-59595755D01*
X76312268Y-59453103D01*
X76383900Y-59381878D01*
X76526961Y-59310858D01*
X76812878Y-59240246D01*
X77170019Y-59241266D01*
X77455528Y-59313511D01*
X77598181Y-59385347D01*
X77669405Y-59456980D01*
X77740425Y-59600040D01*
X77740017Y-59742897D01*
X77668181Y-59885549D01*
X77596548Y-59956773D01*
X77453488Y-60027794D01*
X77167570Y-60098406D01*
X76810429Y-60097385D01*
X76524920Y-60025141D01*
X76382268Y-59953305D01*
X76311043Y-59881672D01*
X76240023Y-59738612D01*
X77745526Y-57814333D02*
X77743078Y-58671473D01*
X77744302Y-58242903D02*
X76244308Y-58238618D01*
X76458185Y-58382087D01*
X76600633Y-58525351D01*
X76671654Y-58668412D01*
X76248185Y-56881480D02*
X76248593Y-56738624D01*
X76320430Y-56595971D01*
X76392062Y-56524747D01*
X76535123Y-56453727D01*
X76821040Y-56383115D01*
X77178181Y-56384135D01*
X77463690Y-56456380D01*
X77606343Y-56528216D01*
X77677567Y-56599848D01*
X77748587Y-56742909D01*
X77748179Y-56885766D01*
X77676343Y-57028418D01*
X77604710Y-57099642D01*
X77461650Y-57170662D01*
X77175733Y-57241275D01*
X76818591Y-57240254D01*
X76533082Y-57168010D01*
X76390430Y-57096173D01*
X76319205Y-57024541D01*
X76248185Y-56881480D01*
X76251042Y-55881485D02*
X76253695Y-54952917D01*
X76823692Y-55454547D01*
X76824305Y-55240262D01*
X76896141Y-55097610D01*
X76967773Y-55026386D01*
X77110834Y-54955366D01*
X77467975Y-54956386D01*
X77610628Y-55028222D01*
X77681852Y-55099854D01*
X77752872Y-55242915D01*
X77751648Y-55671485D01*
X77679812Y-55814137D01*
X77608179Y-55885362D01*
X77758790Y-53171495D02*
X76758794Y-53168638D01*
X76901650Y-53169046D02*
X76830426Y-53097414D01*
X76759406Y-52954353D01*
X76760018Y-52740069D01*
X76831855Y-52597416D01*
X76974915Y-52526396D01*
X77760626Y-52528640D01*
X76974915Y-52526396D02*
X76832263Y-52454560D01*
X76761242Y-52311499D01*
X76761855Y-52097214D01*
X76833691Y-51954562D01*
X76976752Y-51883541D01*
X77762463Y-51885786D01*
X77764503Y-51171503D02*
X76764507Y-51168646D01*
X76907364Y-51169055D02*
X76836140Y-51097422D01*
X76765119Y-50954362D01*
X76765732Y-50740077D01*
X76837568Y-50597424D01*
X76980629Y-50526404D01*
X77766340Y-50528649D01*
X76980629Y-50526404D02*
X76837976Y-50454568D01*
X76766956Y-50311507D01*
X76767568Y-50097222D01*
X76839404Y-49954570D01*
X76982465Y-49883550D01*
X77768176Y-49885794D01*
D12*
X75579998Y-21731428D02*
X79556430Y-21742788D01*
X75379998Y-91741428D02*
X79356430Y-91752788D01*
X78970012Y-21741113D02*
X78770012Y-91751113D01*
X78970012Y-21741113D02*
X78770012Y-91751113D01*
X78970012Y-21741113D02*
X78380376Y-22865937D01*
X78970012Y-21741113D02*
X79553212Y-22869287D01*
X78770012Y-91751113D02*
X79359648Y-90626289D01*
X78770012Y-91751113D02*
X78186812Y-90622939D01*
D10*
D11*
X29418571Y-23871428D02*
X29418571Y-24728571D01*
X29418571Y-24300000D02*
X27918571Y-24300000D01*
X28132857Y-24442857D01*
X28275714Y-24585714D01*
X28347142Y-24728571D01*
X28061428Y-23300000D02*
X27990000Y-23228571D01*
X27918571Y-23085714D01*
X27918571Y-22728571D01*
X27990000Y-22585714D01*
X28061428Y-22514285D01*
X28204285Y-22442857D01*
X28347142Y-22442857D01*
X28561428Y-22514285D01*
X29418571Y-23371428D01*
X29418571Y-22442857D01*
X29347142Y-21728571D02*
X29418571Y-21728571D01*
X29561428Y-21800000D01*
X29632857Y-21871428D01*
X27918571Y-20800000D02*
X27918571Y-20657142D01*
X27990000Y-20514285D01*
X28061428Y-20442857D01*
X28204285Y-20371428D01*
X28490000Y-20300000D01*
X28847142Y-20300000D01*
X29132857Y-20371428D01*
X29275714Y-20442857D01*
X29347142Y-20514285D01*
X29418571Y-20657142D01*
X29418571Y-20800000D01*
X29347142Y-20942857D01*
X29275714Y-21014285D01*
X29132857Y-21085714D01*
X28847142Y-21157142D01*
X28490000Y-21157142D01*
X28204285Y-21085714D01*
X28061428Y-21014285D01*
X27990000Y-20942857D01*
X27918571Y-20800000D01*
X27918571Y-19371428D02*
X27918571Y-19228571D01*
X27990000Y-19085714D01*
X28061428Y-19014285D01*
X28204285Y-18942857D01*
X28490000Y-18871428D01*
X28847142Y-18871428D01*
X29132857Y-18942857D01*
X29275714Y-19014285D01*
X29347142Y-19085714D01*
X29418571Y-19228571D01*
X29418571Y-19371428D01*
X29347142Y-19514285D01*
X29275714Y-19585714D01*
X29132857Y-19657142D01*
X28847142Y-19728571D01*
X28490000Y-19728571D01*
X28204285Y-19657142D01*
X28061428Y-19585714D01*
X27990000Y-19514285D01*
X27918571Y-19371428D01*
X27918571Y-17942857D02*
X27918571Y-17800000D01*
X27990000Y-17657142D01*
X28061428Y-17585714D01*
X28204285Y-17514285D01*
X28490000Y-17442857D01*
X28847142Y-17442857D01*
X29132857Y-17514285D01*
X29275714Y-17585714D01*
X29347142Y-17657142D01*
X29418571Y-17800000D01*
X29418571Y-17942857D01*
X29347142Y-18085714D01*
X29275714Y-18157142D01*
X29132857Y-18228571D01*
X28847142Y-18300000D01*
X28490000Y-18300000D01*
X28204285Y-18228571D01*
X28061428Y-18157142D01*
X27990000Y-18085714D01*
X27918571Y-17942857D01*
X27918571Y-16514285D02*
X27918571Y-16371428D01*
X27990000Y-16228571D01*
X28061428Y-16157142D01*
X28204285Y-16085714D01*
X28490000Y-16014285D01*
X28847142Y-16014285D01*
X29132857Y-16085714D01*
X29275714Y-16157142D01*
X29347142Y-16228571D01*
X29418571Y-16371428D01*
X29418571Y-16514285D01*
X29347142Y-16657142D01*
X29275714Y-16728571D01*
X29132857Y-16800000D01*
X28847142Y-16871428D01*
X28490000Y-16871428D01*
X28204285Y-16800000D01*
X28061428Y-16728571D01*
X27990000Y-16657142D01*
X27918571Y-16514285D01*
X29418571Y-14228571D02*
X28418571Y-14228571D01*
X28561428Y-14228571D02*
X28490000Y-14157142D01*
X28418571Y-14014285D01*
X28418571Y-13800000D01*
X28490000Y-13657142D01*
X28632857Y-13585714D01*
X29418571Y-13585714D01*
X28632857Y-13585714D02*
X28490000Y-13514285D01*
X28418571Y-13371428D01*
X28418571Y-13157142D01*
X28490000Y-13014285D01*
X28632857Y-12942857D01*
X29418571Y-12942857D01*
X29418571Y-12228571D02*
X28418571Y-12228571D01*
X28561428Y-12228571D02*
X28490000Y-12157142D01*
X28418571Y-12014285D01*
X28418571Y-11800000D01*
X28490000Y-11657142D01*
X28632857Y-11585714D01*
X29418571Y-11585714D01*
X28632857Y-11585714D02*
X28490000Y-11514285D01*
X28418571Y-11371428D01*
X28418571Y-11157142D01*
X28490000Y-11014285D01*
X28632857Y-10942857D01*
X29418571Y-10942857D01*
D12*
X42680000Y-11800000D02*
X29953580Y-11800000D01*
X42680000Y-23800000D02*
X29953580Y-23800000D01*
X30540000Y-11800000D02*
X30540000Y-23800000D01*
X30540000Y-11800000D02*
X30540000Y-23800000D01*
X30540000Y-11800000D02*
X29953579Y-12926504D01*
X30540000Y-11800000D02*
X31126421Y-12926504D01*
X30540000Y-23800000D02*
X31126421Y-22673496D01*
X30540000Y-23800000D02*
X29953579Y-22673496D01*
D13*
X57220000Y-84000000D03*
X54680000Y-84000000D03*
X57220000Y-81460000D03*
X54680000Y-81460000D03*
X57220000Y-78920000D03*
X54680000Y-78920000D03*
X57220000Y-76380000D03*
X54680000Y-76380000D03*
X57220000Y-73840000D03*
X54680000Y-73840000D03*
X57220000Y-71300000D03*
X54680000Y-71300000D03*
X57220000Y-68760000D03*
X54680000Y-68760000D03*
X57220000Y-66220000D03*
X54680000Y-66220000D03*
X57220000Y-63680000D03*
X54680000Y-63680000D03*
X57220000Y-61140000D03*
X54680000Y-61140000D03*
X57220000Y-58600000D03*
X54680000Y-58600000D03*
X57220000Y-56060000D03*
X54680000Y-56060000D03*
X57220000Y-53520000D03*
X54680000Y-53520000D03*
X57220000Y-50980000D03*
X54680000Y-50980000D03*
X57220000Y-48440000D03*
X54680000Y-48440000D03*
X57220000Y-45900000D03*
X54680000Y-45900000D03*
X57220000Y-43360000D03*
X54680000Y-43360000D03*
D14*
X56385000Y-25570000D03*
D15*
X56385000Y-28110000D03*
X56385000Y-30650000D03*
X56385000Y-33190000D03*
D14*
X61715000Y-25600000D03*
D15*
X61715000Y-28140000D03*
X61715000Y-30680000D03*
X61715000Y-33220000D03*
D13*
X61022500Y-84000000D03*
X63562500Y-84000000D03*
X61022500Y-81460000D03*
X63562500Y-81460000D03*
X61022500Y-78920000D03*
X63562500Y-78920000D03*
X61022500Y-76380000D03*
X63562500Y-76380000D03*
X61022500Y-73840000D03*
X63562500Y-73840000D03*
X61022500Y-71300000D03*
X63562500Y-71300000D03*
X61022500Y-68760000D03*
X63562500Y-68760000D03*
X61022500Y-66220000D03*
X63562500Y-66220000D03*
X61022500Y-63680000D03*
X63562500Y-63680000D03*
X61022500Y-61140000D03*
X63562500Y-61140000D03*
X61022500Y-58600000D03*
X63562500Y-58600000D03*
X61022500Y-56060000D03*
X63562500Y-56060000D03*
X61022500Y-53520000D03*
X63562500Y-53520000D03*
X61022500Y-50980000D03*
X63562500Y-50980000D03*
X61022500Y-48440000D03*
X63562500Y-48440000D03*
X61022500Y-45900000D03*
X63562500Y-45900000D03*
X61022500Y-43360000D03*
X63562500Y-43360000D03*
D16*
X62387989Y-75205489D02*
X63562500Y-76380000D01*
X54680000Y-76380000D02*
X55854511Y-75205489D01*
X55854511Y-75205489D02*
X62387989Y-75205489D01*
X62387989Y-77745489D02*
X63562500Y-78920000D01*
X54680000Y-78920000D02*
X55854511Y-77745489D01*
X55854511Y-77745489D02*
X62387989Y-77745489D01*
X62387989Y-80285489D02*
X63562500Y-81460000D01*
X54680000Y-81460000D02*
X55854511Y-80285489D01*
X55854511Y-80285489D02*
X62387989Y-80285489D01*
X54680000Y-43360000D02*
X55854511Y-42185489D01*
X55854511Y-42185489D02*
X62387989Y-42185489D01*
X62387989Y-42185489D02*
X63562500Y-43360000D01*
X54680000Y-45900000D02*
X55854511Y-44725489D01*
X62387989Y-44725489D02*
X63562500Y-45900000D01*
X55854511Y-44725489D02*
X62387989Y-44725489D01*
X55854511Y-47265489D02*
X62387989Y-47265489D01*
X62387989Y-47265489D02*
X63562500Y-48440000D01*
X54680000Y-48440000D02*
X55854511Y-47265489D01*
X62387989Y-49805489D02*
X63562500Y-50980000D01*
X55854511Y-49805489D02*
X62387989Y-49805489D01*
X54680000Y-50980000D02*
X55854511Y-49805489D01*
X55854511Y-52345489D02*
X62387989Y-52345489D01*
X62387989Y-52345489D02*
X63562500Y-53520000D01*
X54680000Y-53520000D02*
X55854511Y-52345489D01*
X62387989Y-54885489D02*
X63562500Y-56060000D01*
X55854511Y-54885489D02*
X62387989Y-54885489D01*
X54680000Y-56060000D02*
X55854511Y-54885489D01*
X62387989Y-57425489D02*
X63562500Y-58600000D01*
X54680000Y-58600000D02*
X55854511Y-57425489D01*
X55854511Y-57425489D02*
X62387989Y-57425489D01*
X55854511Y-59965489D02*
X62387989Y-59965489D01*
X54680000Y-61140000D02*
X55854511Y-59965489D01*
X62387989Y-59965489D02*
X63562500Y-61140000D01*
X54680000Y-84000000D02*
X55854520Y-82825480D01*
X62387980Y-82825480D02*
X63562500Y-84000000D01*
X55854520Y-82825480D02*
X62387980Y-82825480D01*
X54680000Y-63680000D02*
X55854511Y-62505489D01*
X55854511Y-62505489D02*
X62387989Y-62505489D01*
X62387989Y-62505489D02*
X63562500Y-63680000D01*
X55854511Y-65045489D02*
X62387989Y-65045489D01*
X62387989Y-65045489D02*
X63562500Y-66220000D01*
X54680000Y-66220000D02*
X55854511Y-65045489D01*
X54680000Y-68760000D02*
X55854511Y-67585489D01*
X62387989Y-67585489D02*
X63562500Y-68760000D01*
X55854511Y-67585489D02*
X62387989Y-67585489D01*
X54680000Y-71300000D02*
X55854511Y-70125489D01*
X62387989Y-70125489D02*
X63562500Y-71300000D01*
X55854511Y-70125489D02*
X62387989Y-70125489D01*
X62387989Y-72665489D02*
X63562500Y-73840000D01*
X54680000Y-73840000D02*
X55854511Y-72665489D01*
X55854511Y-72665489D02*
X62387989Y-72665489D01*
M02*
